Place,Name,CyrillicName,BirthYear,BodyweightKg,Best3SquatKg,Best3BenchKg,Best3DeadliftKg,TotalKg,WeightClassKg,Event,Equipment,Division,Sex,BirthDate
1,Tatyana Khodanovich,Татьяна Ходанович,1989,61.35,140,75,150,365,63,SBD,Single-ply,Open,F,
1,Aleksandra Aleko,Александра Алеко,2001,79.55,165,77.5,142.5,385,84,SBD,Single-ply,Open,F,
1,Arseniy Zhukov,Арсений Жуков,2003,57.4,100,70,130,300,59,SBD,Single-ply,Open,M,
1,Ilya Reshetnyak,Илья Решетняк,1988,71.35,200,150,225,575,74,SBD,Single-ply,Open,M,
1,Georgiy Irikov,Георгий Ириков,1994,89.4,250,145,220,615,93,SBD,Single-ply,Open,M,
2,Andrey Arsyonov,Андрей Арсёнов,1956,87.9,175,145,230,550,93,SBD,Single-ply,Open,M,
1,Vyacheslav Nursagimov,Вячеслав Нурсагимов,1991,99.45,315,245,310,870,105,SBD,Single-ply,Open,M,
2,Ruslan Borkov,Руслан Борков,1988,104.1,280,240,270,790,105,SBD,Single-ply,Open,M,
3,Kirill Romanov,Кирилл Романов,1994,99.05,235,140,230,605,105,SBD,Single-ply,Open,M,
1,Stanislav Evtyutov,Станислав Евтютов,1984,119.3,220,150,250,620,120,SBD,Single-ply,Open,M,
1,Yuriy Vovk,Юрий Вовк,1970,127.2,200,190,210,600,120+,SBD,Single-ply,Open,M,
1,Inna Dyrova,Инна Дырова,1986,46.85,90,47.5,130,267.5,47,SBD,Raw,Open,F,
2,Margarita Chernovskaya,Маргарита Черновская,1993,46.75,55,42.5,92.5,190,47,SBD,Raw,Open,F,
1,Olga Sitkova,Ольга Ситкова,1994,49.55,105,52.5,95,252.5,52,SBD,Raw,Open,F,
2,Valeriya Stepanenko,Валерия Степаненко,1993,49.95,70,50,100,220,52,SBD,Raw,Open,F,
3,Aleksandra Chizhik,Александра Чижик,2002,50.3,70,40,85,195,52,SBD,Raw,Open,F,
1,Yana Dolgikh,Яна Долгих,1991,56.85,95,52.5,140,287.5,57,SBD,Raw,Open,F,
2,Snezhana Korolyova,Снежана Королёва,1996,56.1,100,60,102.5,262.5,57,SBD,Raw,Open,F,
3,Mariya Kolycheva,Мария Колычева,1984,56.05,75,40,122.5,237.5,57,SBD,Raw,Open,F,
4,Yuliya Sigacheva,Юлия Сигачева,1987,54.55,87.5,47.5,100,235,57,SBD,Raw,Open,F,
5,Vasilina Proskvirkina,Василина Просквиркина,1983,56.45,60,45,90,195,57,SBD,Raw,Open,F,
6,Kseniya Druzhinina,Ксения Дружинина,2000,56.95,55,37.5,90,182.5,57,SBD,Raw,Open,F,
1,Ekaterina Mikhienko,Екатерина Михиенко,1996,61.4,110,55,130,295,63,SBD,Raw,Open,F,
2,Inna Didenko,Инна Диденко,1983,61.45,90,57.5,120,267.5,63,SBD,Raw,Open,F,
3,Vasilina Savchenko,Василина Савченко,2000,61.75,92.5,42.5,110,245,63,SBD,Raw,Open,F,
1,Anna Emelyanova,Анна Емельянова,1981,68.45,90,65,105,260,72,SBD,Raw,Open,F,
1,Darya Kaseko,Дарья Касеко,1987,77.45,110,65,110,285,84,SBD,Raw,Open,F,
1,Dmitriy Isaenko,Дмитрий Исаенко,1998,58.9,130,85,155,370,59,SBD,Raw,Open,M,
2,Maksim Redkin,Максим Редькин,1998,58.95,120,100,150,370,59,SBD,Raw,Open,M,
3,Mikhail Melnikov,Михаил Мельников,1993,58.1,105,85,120,310,59,SBD,Raw,Open,M,
4,Aleksandr Goryunov,Александр Горюнов,1998,58.65,90,60,120,270,59,SBD,Raw,Open,M,
1,Vladimir Dvoryantsev,Владимир Дворянцев,1981,64.95,150,110,167.5,427.5,66,SBD,Raw,Open,M,
2,Artemiy Leonov,Артемий Леонов,1996,62.85,147.5,107.5,155,410,66,SBD,Raw,Open,M,
1,Dmitriy Gilo,Дмитрий Гило,1991,73.3,180,135,227.5,542.5,74,SBD,Raw,Open,M,
2,Maksim Syrkin,Максим Сыркин,1990,73.1,185,127.5,225,537.5,74,SBD,Raw,Open,M,
3,Aleksey Akhmetov,Алексей Ахметов,1998,73.2,185,137.5,200,522.5,74,SBD,Raw,Open,M,
4,Ivan Karasyov,Иван Карасёв,1992,73.95,180,130,210,520,74,SBD,Raw,Open,M,
5,Viktor Grishko,Виктор Гришко,1998,71.4,172.5,125,200,497.5,74,SBD,Raw,Open,M,
6,Evgeniy Kochin,Евгений Кочин,1985,73.95,165,107.5,210,482.5,74,SBD,Raw,Open,M,
7,Aleksey Mazur,Алексей Мазур,1988,73.9,170,90,200,460,74,SBD,Raw,Open,M,
8,Nikita Smirnov,Никита Смирнов,1996,73.35,120,120,185,425,74,SBD,Raw,Open,M,
9,Gleb Ivanov,Глеб Иванов,1980,73.1,115,110,165,390,74,SBD,Raw,Open,M,
10,Aleksandr Mazakov,Александр Мазаков,1996,68.65,125,100,155,380,74,SBD,Raw,Open,M,
1,Evgeniy Kun,Евгений Кун,1986,82.55,195,180,242.5,617.5,83,SBD,Raw,Open,M,
2,Ilya Moshkin,Илья Мошкин,2000,81.7,210,147.5,220,577.5,83,SBD,Raw,Open,M,
3,Aleksey Tonkopiy,Алексей Тонкопий,1988,82.45,190,157.5,225,572.5,83,SBD,Raw,Open,M,
4,Evgeniy Dubov,Евгений Дубов,1987,82.5,200,130,230,560,83,SBD,Raw,Open,M,
5,Vladimir Khorev,Владимир Хорев,1991,81.35,202.5,127.5,205,535,83,SBD,Raw,Open,M,
6,Artyom Pavlovich,Артём Павлович,2000,82.9,185,120,210,515,83,SBD,Raw,Open,M,
7,Dmitriy Nedosekin,Дмитрий Недосекин,1999,81.35,165,130,190,485,83,SBD,Raw,Open,M,
8,Anatoliy Derevenskikh,Анатолий Деревенских,1992,79.1,165,120,190,475,83,SBD,Raw,Open,M,
9,Aleksandr Volkov,Александр Волков,1986,77.8,140,120,190,450,83,SBD,Raw,Open,M,
10,Aleksey Solovev,Алексей Соловьев,1988,74.75,160,120,155,435,83,SBD,Raw,Open,M,
11,Denis Tomilov,Денис Томилов,1997,82.9,100,100,100,300,83,SBD,Raw,Open,M,
1,Denis Krapivin,Денис Крапивин,1995,89,235,132.5,242.5,610,93,SBD,Raw,Open,M,
2,Vladislav Dunaev,Владислав Дунаев,1993,88.65,220,165,210,595,93,SBD,Raw,Open,M,
3,Aleksey Mkrtchyan,Алексей Мкртчян,1986,87.75,170,115,207.5,492.5,93,SBD,Raw,Open,M,
4,Oleg Kozmirenko,Олег Козмиренко,1969,92.05,170,150,172.5,492.5,93,SBD,Raw,Open,M,
5,Yuriy Dudnik #2,Юрий Дудник,1988,88.15,160,117.5,185,462.5,93,SBD,Raw,Open,M,
DQ,Egor Lutokhin,Егор Лутохин,1990,92.55,185,-130,197.5,,93,SBD,Raw,Open,M,
1,Yuriy Burkunov,Юрий Буркунов,1989,104.65,247.5,180,260,687.5,105,SBD,Raw,Open,M,
2,Maksim Koshkin,Максим Кошкин,1982,100.55,220,170,230,620,105,SBD,Raw,Open,M,
3,Artyom Tiunov,Артём Тиунов,1990,103.9,230,155,225,610,105,SBD,Raw,Open,M,
4,Ruslan Duplinskiy,Руслан Дуплинский,1982,99.95,200,150,220,570,105,SBD,Raw,Open,M,
5,Dmitriy Novikov,Дмитрий Новиков,1980,101.2,190,125,220,535,105,SBD,Raw,Open,M,
6,Aleksandr Makarov,Александр Макаров,1994,101.05,100,180,120,400,105,SBD,Raw,Open,M,
1,Nikita Konyshev,Никита Конышев,1990,113.25,240,172.5,260,672.5,120,SBD,Raw,Open,M,
2,Aleksandr Bozhko,Александр Божко,1979,109,200,145,212.5,557.5,120,SBD,Raw,Open,M,
3,Danil Komzin,Данил Комзин,1977,113.75,170,170,212.5,552.5,120,SBD,Raw,Open,M,
4,Mikhail Buykevich,Михаил Буйкевич,,110.15,170,130,200,500,120,SBD,Raw,Open,M,
1,Yuriy Erlin,Юрий Ерлин,1987,142.15,260,175,265,700,120+,SBD,Raw,Open,M,
2,Dmitriy Titerin,Дмитрий Титерин,1996,123.2,235,160,280,675,120+,SBD,Raw,Open,M,
