Place,Name,CyrillicName,BodyweightKg,Squat1Kg,Squat2Kg,Squat3Kg,Bench1Kg,Bench2Kg,Bench3Kg,Deadlift1Kg,Deadlift2Kg,Deadlift3Kg,TotalKg,WeightClassKg,Division,Sex,Event,Equipment,Best3SquatKg,Best3BenchKg,Best3DeadliftKg,BirthYear
1,Nataliya Klez,Наталія Клезь,59,100,107.5,112.5,50,-55,55,100,117.5,,285,60,Amateur Teen 13-15,F,SBD,Wraps,112.5,55,117.5,1998
1,Irina Galabir,Ірина Галабір,50.9,45,-55,55,32.5,-37.5,,55,60,65,152.5,52,Amateur Teen 16-17,F,SBD,Wraps,55,32.5,65,1995
1,Liliya Osadcha,Лілія Осадча,50.7,-65,65,-70,35,-40,-40,75,-80,80,180,52,Amateur Open,F,SBD,Wraps,65,35,80,1985
1,Irina Kostromitska,Ірина Костромицька,52.1,-65,-70,70,35,40,-45,80,85,90,200,56,Amateur Open,F,SBD,Wraps,70,40,90,1987
1,Katerina Melchenko,Катерина Мельченко,60,-70,-70,70,35,-37.5,-37.5,75,80,-82.5,185,60,Amateur Open,F,SBD,Wraps,70,35,80,1988
1,Irina Fondalyuk,Ірина Фондалюк,80.8,125,135,137.5,55,60,62.5,-130,130,145,345,82.5,Amateur Open,F,SBD,Wraps,137.5,62.5,145,1981
2,Evgeniya Dorotyuk,Євгенія Доротюк,79.5,60,80,95,50,-55,-57.5,60,90,100,245,82.5,Amateur Open,F,SBD,Wraps,95,50,100,1982
DQ,Irina Tikhonova,Ірина Тихонова,68.8,-95,-100,-105,,,,,,,,75,Amateur Masters 40-44,F,SBD,Wraps,,,,1970
1,Lyudmila Ishchenko,Людмила Іщенко,74.3,90,100,105,50,-55,57.5,100,110,120,282.5,75,Amateur Masters 50-54,F,SBD,Wraps,105,57.5,120,1961
1,Dmitro Nastekhin,Дмитро Настехін,59,82.5,90,95,60,67.5,70,70,85,,250,60,Amateur Teen 13-15,M,SBD,Wraps,95,70,85,1997
1,Maksim Karasev,Максим Карасев,64.6,100,105,-112.5,60,65,67.5,115,125,135,307.5,67.5,Amateur Teen 13-15,M,SBD,Wraps,105,67.5,135,1997
1,Yaroslav Fedchuk,Ярослав Федчук,68.3,110,120,-130,65,70,75,115,125,-135,320,75,Amateur Teen 13-15,M,SBD,Wraps,120,75,125,1997
1,Vladislav Grigorash,Владислав Григораш,70,150,-160,-160,90,95,-100,160,170,-175,415,75,Amateur Teen 16-17,M,SBD,Wraps,150,95,170,1994
2,Andriy Ostapchuk,Андрій Остапчук,72.7,-120,120,-130,100,-110,110,140,-150,-157.5,370,75,Amateur Teen 16-17,M,SBD,Wraps,120,110,140,1994
1,Ivan Shalnov,Іван Шальнов,75.7,190,200,210,110,117.5,-125,175,185,,512.5,82.5,Amateur Teen 16-17,M,SBD,Wraps,210,117.5,185,1994
2,Maksim Goncharov,Максим Гончаров,80,140,150,160,100,-110,110,150,160,170,440,82.5,Amateur Teen 16-17,M,SBD,Wraps,160,110,170,1995
1,Vitaliy Seredenko,Віталій Середенко,88.4,175,-185,-190,110,-115,-115,190,200,210,495,90,Amateur Teen 16-17,M,SBD,Wraps,175,110,210,1995
1,Yaroslav Kalugin,Ярослав Калугін,60,115,120,-125,60,-65,65,135,140,150,335,60,Amateur Teen 18-19,M,SBD,Wraps,120,65,150,1994
1,Oleksandr Romanchuk,Олександр Романчук,64.9,125,130,135,110,115,120,125,130,-137.5,385,67.5,Amateur Teen 18-19,M,SBD,Wraps,135,120,130,1992
DQ,Stanislav Bazil,Станіслав Базіль,67.5,-120,-120,-120,-85,85,90,155,162.5,-165,,67.5,Amateur Teen 18-19,M,SBD,Wraps,,90,162.5,1992
1,Illya Korobov,Ілля Коробов,73.5,125,-135,-135,80,90,-100,-150,160,170,385,75,Amateur Teen 18-19,M,SBD,Wraps,125,90,170,1993
1,Oleksandr Koloskov,Олександр Колосков,80,160,180,-190,130,140,-150,170,190,200,520,82.5,Amateur Teen 18-19,M,SBD,Wraps,180,140,200,1992
DQ,Danilo Ryasniy,Данило Рясний,82.5,,,,,,,,,,,82.5,Amateur Teen 18-19,M,SBD,Wraps,,,,1992
1,Yaroslav Apalkov,Ярослав Апальков,138,210,-230,-230,130,140,-150,210,230,-250,580,140,Amateur Teen 18-19,M,SBD,Wraps,210,140,230,1993
1,Maksim Tinkovan,Максим Тинкован,58.35,130,-140,-140,80,87.5,-90,137.5,145,150,367.5,60,Amateur Juniors 20-23,M,SBD,Wraps,130,87.5,150,1990
1,Mikael Oganesyan,Мікаель Оганесян,66.9,160,-170,170,100,-110,-110,210,-225,-225,480,67.5,Amateur Juniors 20-23,M,SBD,Wraps,170,100,210,1991
2,Volodimir Yakunin,Володимир Якунін,65.6,155,165,-170,-100,100,-105,180,195,-212.5,460,67.5,Amateur Juniors 20-23,M,SBD,Wraps,165,100,195,1988
1,Oleksiy Koshoviy,Олексій Кошовий,75,160,170,180,125,-130,-130,185,-210,210,515,75,Amateur Juniors 20-23,M,SBD,Wraps,180,125,210,1989
2,Kostyantin Vishnevskiy,Костянтин Вишневський,67.9,-140,160,-165,90,100,105,200,210,-225,475,75,Amateur Juniors 20-23,M,SBD,Wraps,160,105,210,1990
3,Vasil Pashkevich,Василь Пашкевич,72.5,-165,165,-175,130,135,140,-160,160,-170,465,75,Amateur Juniors 20-23,M,SBD,Wraps,165,140,160,1988
1,Eduard Lisovetskiy,Едуард Лісовецький,80.6,-200,-200,200,100,107.5,112.5,190,197.5,-202.5,510,82.5,Amateur Juniors 20-23,M,SBD,Wraps,200,112.5,197.5,1988
2,Oleksandr Deyneko,Олександр Дейнеко,77.2,140,155,-162.5,115,-120,120,190,205,-210,480,82.5,Amateur Juniors 20-23,M,SBD,Wraps,155,120,205,1989
3,Ivan Gutsu,Іван Гуцу,79.2,150,-165,175,90,100,105,150,170,-185,450,82.5,Amateur Juniors 20-23,M,SBD,Wraps,175,105,170,1991
1,Igor Mazur,Ігор Мазур,83.8,180,195,205,110,-120,120,170,185,192.5,517.5,90,Amateur Juniors 20-23,M,SBD,Wraps,205,120,192.5,1989
2,Andriy Drutsul,Андрій Друцул,84.1,170,180,,110,-120,-120,205,215,,505,90,Amateur Juniors 20-23,M,SBD,Wraps,180,110,215,1989
3,Evgen Polezhaev,Євген Полєжаєв,88.3,160,-180,-190,120,135,-145,180,200,210,505,90,Amateur Juniors 20-23,M,SBD,Wraps,160,135,210,1991
4,Oleksandr Tarasov,Олександр Тарасов,88.7,100,,,125,-130,,160,190,-200,415,90,Amateur Juniors 20-23,M,SBD,Wraps,100,125,190,1991
5,Danilo Udovik,Данило Удовик,87,130,140,150,82.5,87.5,90,140,152.5,157.5,397.5,90,Amateur Juniors 20-23,M,SBD,Wraps,150,90,157.5,1992
1,Mikhaylo Kozelchuk,Михайло Козельчук,99.7,190,210,-225,160,170,177.5,210,230,-250,617.5,100,Amateur Juniors 20-23,M,SBD,Wraps,210,177.5,230,1988
2,Dmitro Kalnin,Дмитро Кальнин,97.9,200,210,-220,130,-140,140,220,235,,585,100,Amateur Juniors 20-23,M,SBD,Wraps,210,140,235,1989
1,Maksim Tinkovan,Максим Тинкован,58.35,130,-140,-140,80,87.5,-90,137.5,145,150,367.5,60,Amateur Open,M,SBD,Wraps,130,87.5,150,1990
1,Mikael Oganesyan,Мікаель Оганесян,66.9,160,-170,170,100,-110,-110,210,-225,-225,480,67.5,Amateur Open,M,SBD,Wraps,170,100,210,1991
2,Mikola Kozma,Микола Козьма,63.9,-110,-110,110,70,75,80,155,162.5,-170,352.5,67.5,Amateur Open,M,SBD,Wraps,110,80,162.5,1955
1,Oleksandr Vigivskiy,Олександр Вигівський,73.8,190,200,-210,105,110,115,200,210,,525,75,Amateur Open,M,SBD,Wraps,200,115,210,1986
2,Volodimir Komnatskiy,Володимир Комнацький,73.7,160,-165,165,115,120,125,180,190,200,490,75,Amateur Open,M,SBD,Wraps,165,125,200,1979
3,Ivan Rupchan,Іван Рупчан,72.9,-145,155,-160,115,122.5,125,-180,190,200,480,75,Amateur Open,M,SBD,Wraps,155,125,200,1981
4,Kostyantin Vishnevskiy,Костянтин Вишневський,67.9,-140,160,-165,90,100,105,200,210,-225,475,75,Amateur Open,M,SBD,Wraps,160,105,210,1990
DQ,Andriy Besedin,Андрій Беседін,72.9,-175,-175,-180,122.5,127.5,130,195,-205,,,75,Amateur Open,M,SBD,Wraps,,130,195,1984
1,Andriy Dyatlov,Андрій Дятлов,80,190,205,,142.5,-147.5,,215,230,,577.5,82.5,Amateur Open,M,SBD,Wraps,205,142.5,230,1985
2,Yuriy Bilyuga,Юрій Білюга,80.1,170,-180,185,110,-115,115,200,210,215,515,82.5,Amateur Open,M,SBD,Wraps,185,115,215,1984
3,Volodimir Tsibulskiy,Володимир Цибульський,80.6,165,185,-192.5,100,-115,-115,190,200,222.5,507.5,82.5,Amateur Open,M,SBD,Wraps,185,100,222.5,1986
1,Vitaliy Palivoda,Віталій Паливода,88.5,225,240,,125,130,-135,220,225,230,600,90,Amateur Open,M,SBD,Wraps,240,130,230,1983
2,Andriy Goncharov,Андрій Гончаров,89.5,210,-220,220,150,155,-160,215,220,225,600,90,Amateur Open,M,SBD,Wraps,220,155,225,1981
3,Roman Kachur,Роман Качур,85,170,190,200,115,125,-132.5,200,245,,570,90,Amateur Open,M,SBD,Wraps,200,125,245,1984
4,Maksim Boyarskiy #1,Максим Боярський,89.4,180,195,-205,130,-137.5,-137.5,180,195,210,535,90,Amateur Open,M,SBD,Wraps,195,130,210,1984
5,Igor Mazur,Ігор Мазур,83.8,180,195,205,110,-120,120,180,185,192.5,517.5,90,Amateur Open,M,SBD,Wraps,205,120,192.5,1989
6,Andriy Drutsul,Андрій Друцул,84.1,170,180,,110,-120,-120,205,215,,505,90,Amateur Open,M,SBD,Wraps,180,110,215,1989
7,Mikhaylo Malko,Михайло Малько,88,130,140,-145,110,117.5,122.5,150,170,-180,432.5,90,Amateur Open,M,SBD,Wraps,140,122.5,170,1987
1,Volodimir Ukhach,Володимир Ухач,97.2,250,265,280,170,180,-185,240,260,270,730,100,Amateur Open,M,SBD,Wraps,280,180,270,1960
2,Oleg Khmilyak,Олег Хмиляк,93.5,-230,230,,135,-145,-145,220,235,245,610,100,Amateur Open,M,SBD,Wraps,230,135,245,1988
3,Yuriy Chernyavskiy #1,Юрій Чернявський,97.5,205,220,-230,155,165,-170,215,225,-230,610,100,Amateur Open,M,SBD,Wraps,220,165,225,1972
1,Yuriy Shinkaruk,Юрій Шинкарук,109.5,195,210,220,155,-165,165,195,-215,,580,110,Amateur Open,M,SBD,Wraps,220,165,195,1976
1,Yuriy Spinov,Юрій Спінов,118.6,240,260,-270,125,132.5,-137.5,280,300,315,707.5,125,Amateur Open,M,SBD,Wraps,260,132.5,315,1962
2,Mikola Prezhin,Микола Прежин,123.3,210,-230,250,170,185,200,230,250,-272.5,700,125,Amateur Open,M,SBD,Wraps,250,200,250,1981
3,Oleksandr Shvab,Олександр Шваб,118.2,170,-190,,150,165,175,200,240,,585,125,Amateur Open,M,SBD,Wraps,170,175,240,1976
1,Volodimir Korenga,Володимир Коренга,80.2,130,-140,-155,125,-135,-135,150,170,190,445,82.5,Amateur Masters 40-44,M,SBD,Wraps,130,125,190,1970
1,Yaroslav Falbiychuk,Ярослав Фальбійчук,87.9,170,185,-195,140,145,147.5,180,195,200,532.5,90,Amateur Masters 40-44,M,SBD,Wraps,185,147.5,200,1968
1,Yuriy Chernyavskiy #1,Юрій Чернявський,97.5,205,220,-230,155,165,-170,215,225,-230,610,100,Amateur Masters 40-44,M,SBD,Wraps,220,165,225,1972
1,Sergiy Kolisnik,Сергій Колісник,96.8,180,200,210,130,140,145,180,200,210,565,100,Amateur Masters 45-49,M,SBD,Wraps,210,145,210,1963
2,Yuriy Khanov,Юрій Ханов,98.9,180,-190,-190,110,-115,-115,190,200,,490,100,Amateur Masters 45-49,M,SBD,Wraps,180,110,200,1963
1,Yuriy Spinov,Юрій Спінов,118.6,240,260,-270,125,132.5,-137.5,280,300,315,707.5,125,Amateur Masters 45-49,M,SBD,Wraps,260,132.5,315,1962
1,Volodimir Ukhach,Володимир Ухач,97.2,250,265,280,170,180,-185,240,260,270,730,100,Amateur Masters 50-54,M,SBD,Wraps,280,180,270,1960
1,Valeriy Melnik #1,Валерій Мельник,107.25,-220,220,,140,-150,150,210,220,,590,110,Amateur Masters 50-54,M,SBD,Wraps,220,150,220,1958
1,Mikola Kozma,Микола Козьма,63.9,-110,-110,110,70,75,80,155,162.5,-170,352.5,67.5,Amateur Masters 55-59,M,SBD,Wraps,110,80,162.5,1955
1,Volodimir Vasilenko,Володимир Василенко,75.6,-105,105,115,60,65,67.5,130,150,,332.5,82.5,Amateur Masters 65-69,M,SBD,Wraps,115,67.5,150,1943
1,Mikita Kravets,Микита Кравець,40,80,87.5,92.5,42.5,-45,45,80,-87.5,,217.5,44,Amateur Sub-Teen 11-12,M,SBD,Wraps,92.5,45,80,2000
1,Maksim Shut,Максим Шуть,66.5,90,100,105,45,50,-52.5,85,95,-100,250,67.5,Amateur Teen,M,SBD,Wraps,105,50,95,1999
1,Igor Lisenko,Игорь Лысенко,69.7,95,105,110,40,45,-50,-95,95,-105,250,75,Amateur Sub-Teen 11-12,M,SBD,Wraps,110,45,95,2000
1,Olena Koroeva,Олена Короєва,56,-92.5,92.5,-100,57.5,60,62.5,100,105,110,265,56,Amateur Open,F,SBD,Multi-ply,92.5,62.5,110,1983
1,Aleksandr Petrov,Александр Петров,74.35,155,170,-175,127.5,137.5,-145,180,202.5,,510,75,Amateur Juniors 20-23,M,SBD,Multi-ply,170,137.5,202.5,1990
1,Aleksandr Petrov,Александр Петров,74.35,155,170,-175,127.5,137.5,-145,180,202.5,,510,75,Amateur Open,M,SBD,Multi-ply,170,137.5,202.5,1990
1,Konstyantin Sapunkov,Констянтин Сапунков,82.5,260,-270,,195,-202.5,-202.5,230,240,,695,82.5,Amateur Open,M,SBD,Multi-ply,260,195,240,1981
1,Tetyana Kalugina,Тетяна Калугіна,60,150,-160,-160,90,95,97.5,130,140,150,397.5,60,Pro Open,F,SBD,Wraps,150,97.5,150,1980
2,Lina Zubritska,Ліна Зубрицька,60,90,100,110,85,90,95,-110,110,125,330,60,Pro Open,F,SBD,Wraps,110,95,125,1988
1,Lyudmila Tsvetkova,Людмила Цветкова,55.8,80,-90,-100,45,50,-52.5,80,95,110,240,56,Pro Masters 50-54,F,SBD,Wraps,80,50,110,1961
1,Oleksandr Noskov,Олександр Носков,83.5,-150,-150,150,115,120,-127.5,170,175,182.5,452.5,90,Pro Teen 16-17,M,SBD,Wraps,150,120,182.5,1994
1,Anton Popov,Антон Попов,69.9,120,,,110,,,130,,,360,75,Pro Juniors 20-23,M,SBD,Wraps,120,110,130,1989
DQ,Pavl Kovalchuk,Павл Ковальчук,77.1,-230,-230,-230,147.5,152.5,,-260,-260,260,,82.5,Pro Juniors 20-23,M,SBD,Wraps,,152.5,260,1988
DQ,Volodimir Khom'Yak,Володимир Хом'Як,79.1,-200,-200,-200,135,-145,-145,-200,220,230,,82.5,Pro Juniors 20-23,M,SBD,Wraps,,135,230,1991
1,Andriy Goncharuk,Андрій Гончарук,100,-280,-280,280,160,167.5,-170,280,290,-300,737.5,100,Pro Juniors 20-23,M,SBD,Wraps,280,167.5,290,1988
2,Viktor Kratko,Віктор Кратько,97.6,-180,-180,180,145,-150,150,230,240,-245,570,100,Pro Juniors 20-23,M,SBD,Wraps,180,150,240,1988
1,Dmitro Putin,Дмитро Путін,117.5,270,-290,-290,130,-140,140,270,285,290,700,125,Pro Juniors 20-23,M,SBD,Wraps,270,140,290,1988
1,Oleksandr Korshak,Олександр Коршак,75,165,170,180,-125,125,-130,210,217.5,,522.5,75,Pro Open,M,SBD,Wraps,180,125,217.5,1983
1,Konstyantin Chernov,Констянтин Чернов,82,240,260,-270,160,172.5,180,240,260,-270,700,82.5,Pro Open,M,SBD,Wraps,260,180,260,1984
DQ,Pavlo Kovalchuk,Павло Ковальчук,77.1,-230,-230,-230,147.5,152.5,,-260,-260,260,,82.5,Pro Open,M,SBD,Wraps,,152.5,260,1988
DQ,Volodimir Kovalenko,Володимир Коваленко,77.1,-170,-170,-170,-130,-130,-130,-210,,,,82.5,Pro Open,M,SBD,Wraps,,,,1985
1,Vyacheslav Zdorovenko,Вячеслав Здоровенко,86.6,230,-240,240,140,145,147.5,240,-247.5,-247.5,627.5,90,Pro Open,M,SBD,Wraps,240,147.5,240,1983
2,Oleksiy Fedorenko,Олексій Федоренко,89.5,200,215,-225,140,150,-155,215,225,230,595,90,Pro Open,M,SBD,Wraps,215,150,230,1986
3,Viktor Galabir,Віктор Галабір,88.9,180,190,200,125,132.5,135,180,200,222.5,557.5,90,Pro Open,M,SBD,Wraps,200,135,222.5,1974
4,Vitaliy Savelev #1,Віталій Савельєв,89,160,170,-175,125,135,-140,160,170,192.5,497.5,90,Pro Open,M,SBD,Wraps,170,135,192.5,1979
1,Andriy Goncharuk,Андрій Гончарук,100,-280,-280,280,160,167.5,-170,280,290,-300,737.5,100,Pro Open,M,SBD,Wraps,280,167.5,290,1988
2,Evgeniy Gamuryak,Евгений Гамуряк,100,-235,235,-245,185,192.5,-195,270,285,,712.5,100,Pro Open,M,SBD,Wraps,235,192.5,285,1987
DQ,Yaroslav Trubichkin,Ярослав Трубічкін,94,-300,-320,-320,,,,,,,,100,Pro Open,M,SBD,Wraps,,,,1987
1,Oleksandr Shendrik,Олександр Шендрик,109.5,200,210,220,120,130,137.5,200,220,230,587.5,110,Pro Open,M,SBD,Wraps,220,137.5,230,1972
1,Andriy Yaremus,Андрій Яремус,111.6,-300,300,,175,185,190,265,280,290,780,125,Pro Open,M,SBD,Wraps,300,190,290,1977
2,Dmitro Putin,Дмитро Путін,117.5,270,-290,-290,130,-140,140,270,285,290,700,125,Pro Open,M,SBD,Wraps,270,140,290,1988
1,Andriy Grin,Андрій Гринь,130,310,-325,330,190,200,-210,290,-305,,820,140,Pro Open,M,SBD,Wraps,330,200,290,1968
DQ,Oleksandr Gensitskyy,Олександр Генсіцький,138,,,,,,,,,,,140,Pro Open,M,SBD,Wraps,,,,1975
1,Andriy Grin,Андрій Гринь,130,310,-325,330,190,200,-210,290,-305,,820,140,Pro Masters 40-44,M,SBD,Wraps,330,200,290,1968
DQ,Dmitro Kabakov,Дмитро Кабаков,,,,,,,,,,,,90,Pro Masters 45-49,M,SBD,Wraps,,,,1963
DQ,Sergiy Denisov,Сергій Денисов,99.9,-160,-160,-160,-120,-130,-130,,,,,100,Pro Masters 55-59,M,SBD,Wraps,,,,1956
1,Volodimir Nagalyuk,Володимир Нагалюк,83.6,140,150,160,70,-80,85,170,180,190,435,90,Pro Masters 60-64,M,SBD,Wraps,160,85,190,1951
1,Viktor Galabir,Віктор Галабір,88.9,180,190,200,125,132.5,135,180,200,222.5,557.5,90,Pro Submasters 33-39,M,SBD,Wraps,200,135,222.5,1974
1,Anton Popov,Антон Попов,69.9,185,-195,-195,135,140,145,170,-177.5,182.5,512.5,75,Pro Juniors 20-23,M,SBD,Multi-ply,185,145,182.5,1989
1,Volodimir Grammatik,Володимир Грамматик,88.7,310,320,325,-205,205,212.5,270,285,307.5,845,90,Pro Open,M,SBD,Multi-ply,325,212.5,307.5,1982
2,Sergiy Sokolovskiy,Сергій Соколовський,87,260,275,290,140,147.5,155,280,300,310,755,90,Pro Open,M,SBD,Multi-ply,290,155,310,1976
DQ,Denis Dubrovskiy,Денис Дубровський,119.7,-350,-370,-370,,,,,,,,125,Pro Open,M,SBD,Multi-ply,,,,1980
1,Sergiy Sokolovskiy,Сергій Соколовський,87,260,275,290,140,147.5,155,280,300,310,755,90,Pro Submasters 33-39,M,SBD,Multi-ply,290,155,310,1976
1,Irina Galabir,Ірина Галабір,50.9,,,,32.5,37.5,-40,,,,37.5,52,Amateur Teen 16-17,F,B,Raw,,37.5,,1995
DQ,Olga Yanova,Ольга Янова,54.2,,,,-47.5,-47.5,-52.5,,,,,56,Amateur Juniors 20-23,F,B,Raw,,,,1990
DQ,Nataliya Galushka,Наталія Галушка,,,,,,,,,,,,48,Amateur Open,F,B,Raw,,,,1977
1,Nataliya Melnichuk,Наталія Мельничук,51,,,,55,60,62.5,,,,62.5,52,Amateur Open,F,B,Raw,,62.5,,1975
2,Armine Sargsyan,Арміне Саргсян,49,,,,37.5,-42.5,-42.5,,,,37.5,52,Amateur Open,F,B,Raw,,37.5,,1981
1,Olena Koroeva,Олена Короєва,56,,,,55,57.5,-60,,,,57.5,56,Amateur Open,F,B,Raw,,57.5,,1983
2,Olena Bondarenko,Олена Бондаренко,53.8,,,,40,-45,-45,,,,40,56,Amateur Open,F,B,Raw,,40,,1966
1,Tetyana Dudnik,Тетяна Дудник,80.75,,,,72.5,-82.5,-82.5,,,,72.5,82.5,Amateur Open,F,B,Raw,,72.5,,1983
1,Tetyana Dzhevinska,Тетяна Джевінська,86.7,,,,55,60,-62.5,,,,60,90,Amateur Open,F,B,Raw,,60,,1984
1,Dmitro Klimuk,Дмитро Клімук,49.5,,,,45,50,55,,,,55,52,Amateur Teen 13-15,M,B,Raw,,55,,1998
1,Andriy Prilepa,Андрій Прилепа,54,,,,-40,45,-52.5,,,,45,56,Amateur Teen 13-15,M,B,Raw,,45,,1997
1,Bogdan Stets,Богдан Стець,57.9,,,,60,65,-67.5,,,,65,60,Amateur Teen 13-15,M,B,Raw,,65,,1997
1,Volodimir Kolisnik,Володимир Колісник,63.9,,,,75,80,85,,,,85,67.5,Amateur Teen 13-15,M,B,Raw,,85,,1997
2,Pavlo Muravyov,Павло Муравйов,62.3,,,,75,80,-87.5,,,,80,67.5,Amateur Teen 13-15,M,B,Raw,,80,,1997
1,Andriy Rikhlyuk,Андрій Рихлюк,65.5,,,,115,-117.5,-117.5,,,,115,67.5,Amateur Teen 16-17,M,B,Raw,,115,,1994
2,Dmitro Verkhovod,Дмитро Верховод,64.55,,,,-105,105,-110,,,,105,67.5,Amateur Teen 16-17,M,B,Raw,,105,,1995
3,Igor Avzaletdinov,Ігор Авзалетдінов,64.6,,,,90,-95,-95,,,,90,67.5,Amateur Teen 16-17,M,B,Raw,,90,,1995
1,Andriy Ostapchuk,Андрій Остапчук,72.7,,,,100,107.5,112.5,,,,112.5,75,Amateur Teen 16-17,M,B,Raw,,112.5,,1994
2,Vladislav Kovalenko,Владислав Коваленко,74,,,,105,112.5,-115,,,,112.5,75,Amateur Teen 16-17,M,B,Raw,,112.5,,1995
1,Anton Zhukotskiy,Антон Жукоцький,75.2,,,,85,-90,-90,,,,85,82.5,Amateur Teen 16-17,M,B,Raw,,85,,1995
1,Oleg Melnichuk,Олег Мельничук,87,,,,87.5,92.5,97.5,,,,97.5,90,Amateur Teen 16-17,M,B,Raw,,97.5,,1994
DQ,Evgeniy Omelchuk,Євгеній Омельчук,92.3,,,,-125,,,,,,,100,Amateur Teen 16-17,M,B,Raw,,,,1995
1,Valeriy Khorechko,Валерій Хоречко,77.2,,,,155,160,167.5,,,,167.5,82.5,Amateur Teen 18-19,M,B,Raw,,167.5,,1992
2,Oleksandr Koloskov,Олександр Колосков,80,,,,130,140,150,,,,150,82.5,Amateur Teen 18-19,M,B,Raw,,150,,1992
3,Roman Andrushchak,Роман Андрущак,81,,,,110,-115,-115,,,,110,82.5,Amateur Teen 18-19,M,B,Raw,,110,,1992
DQ,Danilo Ryasniy,Данило Рясний,82.5,,,,-165,-165,-165,,,,,82.5,Amateur Teen 18-19,M,B,Raw,,,,1992
1,Dmitro Zarazhevskiy,Дмитро Заражевський,94.3,,,,135,147.5,,,,,147.5,100,Amateur Teen 18-19,M,B,Raw,,147.5,,1992
1,Oleksandr Bednarskiy,Олександр Беднарський,54.6,,,,100,105,-110,,,,105,56,Amateur Juniors 20-23,M,B,Raw,,105,,1990
1,Andriy Danevich,Андрій Даневич,57.6,,,,105,112.5,-117.5,,,,112.5,60,Amateur Juniors 20-23,M,B,Raw,,112.5,,1992
1,Oleksandr Adonin,Олександр Адонін,66.7,,,,-105,105,110,,,,110,67.5,Amateur Juniors 20-23,M,B,Raw,,110,,1990
1,Oleksandr Romashchenko,Олександр Ромащенко,74,,,,-132.5,137.5,140,,,,140,75,Amateur Juniors 20-23,M,B,Raw,,140,,1989
2,Mikola Gladkiy,Микола Гладкий,73,,,,125,132.5,-137.5,,,,132.5,75,Amateur Juniors 20-23,M,B,Raw,,132.5,,1991
3,Yuriy Pets,Юрій Пець,73.7,,,,125,-130,132.5,,,,132.5,75,Amateur Juniors 20-23,M,B,Raw,,132.5,,1988
4,Stanislav Gelyuta,Станіслав Гелюта,75,,,,125,130,-132.5,,,,130,75,Amateur Juniors 20-23,M,B,Raw,,130,,1992
1,Yuriy Matsyuk,Юрій Мацюк,79,,,,135,-145,150,,,,150,82.5,Amateur Juniors 20-23,M,B,Raw,,150,,1988
2,Oleksandr Lisovskiy #1,Олександр Лісовський,80.8,,,,132.5,-137.5,137.5,,,,137.5,82.5,Amateur Juniors 20-23,M,B,Raw,,137.5,,1990
3,Dmitro Gavrilyuk,Дмитро Гаврилюк,79,,,,120,130,-132.5,,,,130,82.5,Amateur Juniors 20-23,M,B,Raw,,130,,1989
1,Vitaliy Pedan,Віталій Педан,89.2,,,,140,147.5,152.5,,,,152.5,90,Amateur Juniors 20-23,M,B,Raw,,152.5,,1989
DQ,Oleksandr Tarasov,Олександр Тарасов,88.7,,,,-135,-135,-135,,,,,90,Amateur Juniors 20-23,M,B,Raw,,,,1991
1,Vitaliy Demedyuk,Віталій Демедюк,99.35,,,,137.5,142.5,147.5,,,,147.5,100,Amateur Juniors 20-23,M,B,Raw,,147.5,,1989
1,Vitaliy Reyda,Віталій Рейда,101,,,,110,115,-120,,,,115,110,Amateur Juniors 20-23,M,B,Raw,,115,,1990
1,Oleksandr Bednarskiy,Олександр Беднарський,54.6,,,,100,105,-110,,,,105,56,Amateur Open,M,B,Raw,,105,,1990
1,Vladislav Severin,Владислав Северин,67.5,,,,125,-130,-130,,,,125,67.5,Amateur Open,M,B,Raw,,125,,1985
2,Sergiy Toporen,Сергій Топорен,66.8,,,,100,105,-112.5,,,,105,67.5,Amateur Open,M,B,Raw,,105,,1987
3,Roman Kostenko,Роман Костенко,63.3,,,,75,80,-85,,,,80,67.5,Amateur Open,M,B,Raw,,80,,1985
DQ,Bogdan Kunitskiy,Богдан Куницький,66.2,,,,-120,-120,-125,,,,,67.5,Amateur Open,M,B,Raw,,,,1987
DQ,Oleksandr Balu,Олександр Балу,67,,,,-120,-120,-120,,,,,67.5,Amateur Open,M,B,Raw,,,,1985
1,Oleksandr Vorontsov,Олександр Воронцов,73.7,,,,132.5,137.5,142.5,,,,142.5,75,Amateur Open,M,B,Raw,,142.5,,1987
2,Andriy Kostyuk,Андрій Костюк,73.6,,,,130,137.5,-140,,,,137.5,75,Amateur Open,M,B,Raw,,137.5,,1986
3,Stanislav Sheyko,Станислав Шейко,70.8,,,,125,130,-137.5,,,,130,75,Amateur Open,M,B,Raw,,130,,1986
4,Igor Savin #1,Ігор Савін,73.6,,,,130,-137.5,-137.5,,,,130,75,Amateur Open,M,B,Raw,,130,,1987
5,Mikola Semikin,Микола Семікін,72.8,,,,112.5,-117.5,-117.5,,,,112.5,75,Amateur Open,M,B,Raw,,112.5,,1986
1,Andriy Dyatlov,Андрій Дятлов,80,,,,142.5,147.5,150,,,,150,82.5,Amateur Open,M,B,Raw,,150,,1985
2,Francesco LoPorto,,81.7,,,,140,145,-150,,,,145,82.5,Amateur Open,M,B,Raw,,145,,1980
3,Oleksandr Lisovskiy #1,Олександр Лісовський,80.8,,,,132.5,-137.5,137.5,,,,137.5,82.5,Amateur Open,M,B,Raw,,137.5,,1990
4,Sergiy Petrashchuk,Сергій Петращук,82.3,,,,130,135,-140,,,,135,82.5,Amateur Open,M,B,Raw,,135,,1982
5,Igor Chernenko #3,Ігор Черненко,81.3,,,,-125,130,-132.5,,,,130,82.5,Amateur Open,M,B,Raw,,130,,1983
1,Konstyantin Grabovskiy,Констянтин Грабовський,89,,,,-190,190,-195,,,,190,90,Amateur Open,M,B,Raw,,190,,1976
2,Rostislav Bondarenko,Ростислав Бондаренко,88.8,,,,150,160,170,,,,170,90,Amateur Open,M,B,Raw,,170,,1972
1,Oleksandr Ageenko,Олександр Агеєнко,98.2,,,,165,170,175,,,,175,100,Amateur Open,M,B,Raw,,175,,1976
2,Oleksiy Bondarenko,Олексій Бондаренко,98.1,,,,155,162.5,-167.5,,,,162.5,100,Amateur Open,M,B,Raw,,162.5,,1981
3,Leonid Matyukhin,Леонід Матюхін,94.7,,,,150,160,-170,,,,160,100,Amateur Open,M,B,Raw,,160,,1977
4,Sergiy Sidorchuk,Сергій Сидорчук,95.1,,,,135,140,-145,,,,140,100,Amateur Open,M,B,Raw,,140,,1981
1,Oleksandr Aleksandrov,Олександр Александров,107.5,,,,160,167.5,172.5,,,,172.5,110,Amateur Open,M,B,Raw,,172.5,,1971
2,Volodimir Kolyada,Володимир Коляда,104.7,,,,145,155,160,,,,160,110,Amateur Open,M,B,Raw,,160,,1983
3,Sergiy Shumskiy,Сергій Шумський,104.5,,,,155,-162.5,-162.5,,,,155,110,Amateur Open,M,B,Raw,,155,,1985
1,Oleksandr Shvab,Олександр Шваб,118.2,,,,155,170,,,,,170,125,Amateur Open,M,B,Raw,,170,,1976
1,Volodimir Korenga,Володимир Коренга,80.2,,,,-125,125,132.5,,,,132.5,82.5,Amateur Masters 40-44,M,B,Raw,,132.5,,1970
1,Yaroslav Falbiychuk,Ярослав Фальбійчук,87.9,,,,140,145,-150,,,,145,90,Amateur Masters 40-44,M,B,Raw,,145,,1968
1,Oleksandr Tolkachev,Олександр Толкачев,99.25,,,,-155,155,-160,,,,155,100,Amateur Masters 40-44,M,B,Raw,,155,,1970
2,Pavlo Kipnyak,Павло Кіпняк,97,,,,130,135,-140,,,,135,100,Amateur Masters 40-44,M,B,Raw,,135,,1968
1,Oleksandr Aleksandrov,Олександр Александров,107.5,,,,160,167.5,172.5,,,,172.5,110,Amateur Masters 40-44,M,B,Raw,,172.5,,1971
2,Ruslan Pilipchuk,Руслан Пилипчук,103.8,,,,155,-160,162.5,,,,162.5,110,Amateur Masters 40-44,M,B,Raw,,162.5,,1970
1,Vladislav Marchenko,Владислав Марченко,115.2,,,,140,-142.5,142.5,,,,142.5,125,Amateur Masters 40-44,M,B,Raw,,142.5,,1967
1,Petro Pristupa,Петро Приступа,81.2,,,,100,105,110,,,,110,82.5,Amateur Masters 45-49,M,B,Raw,,110,,1963
1,Yuriy Eleva,Юрій Єлева,105,,,,127.5,-135,-137.5,,,,127.5,110,Amateur Masters 45-49,M,B,Raw,,127.5,,1963
1,Oleksandr Kalkutin,Олександр Калкутін,124,,,,165,172.5,-177.5,,,,172.5,125,Amateur Masters 45-49,M,B,Raw,,172.5,,1965
1,Mikola Skidanyuk,Микола Скиданюк,81.7,,,,95,105,107.5,,,,107.5,82.5,Amateur Masters 50-54,M,B,Raw,,107.5,,1960
DD,Volodimir Lizurchik,Володимир Лізурчик,107,,,,-160,-170,-175,,,,,110,Amateur Masters 50-54,M,B,Raw,,,,1958
1,Mikola Kozma,Микола Козьма,63.9,,,,70,75,80,,,,80,67.5,Amateur Masters 55-59,M,B,Raw,,80,,1955
1,Viktor Nikitin #1,Віктор Нікітін,80.5,,,,120,125,-127.5,,,,125,82.5,Amateur Masters 55-59,M,B,Raw,,125,,1956
1,Yuriy Filonenko,Юрій Філоненко,89.5,,,,110,115,120,,,,120,90,Amateur Masters 55-59,M,B,Raw,,120,,1954
1,Volodimir Makovskiy,Володимир Маковський,75,,,,85,-90,,,,,85,75,Amateur Masters 60-64,M,B,Raw,,85,,1950
1,Evgeniy Khokhlov,Евгений Хохлов,95,,,,125,130,-135,,,,130,100,Amateur Masters 60-64,M,B,Raw,,130,,1948
1,Valeriy Gladish,Валерій Гладиш,100,,,,90,95,-100,,,,95,100,Amateur Masters 65-69,M,B,Raw,,95,,1946
1,Yuriy Kislitsya,Юрій Кислиця,85,,,,50,55,60,,,,60,90,Amateur Masters 70-74,M,B,Raw,,60,,1938
1,Oleksandr Ageenko,Олександр Агеєнко,98.2,,,,165,170,175,,,,175,100,Amateur Submasters 33-39,M,B,Raw,,175,,1976
1,Vladislav Bondarenko,Владислав Бондаренко,32,,,,35,-37.5,-37.5,,,,35,44,Amateur Sub-Teen 11-12,M,B,Raw,,35,,1999
1,Viktor Falbiychuk,Віктор Фальбійчук,40.6,,,,30,35,37.5,,,,37.5,44,Amateur Youth 8,M,B,Raw,,37.5,,2003
1,Aleksandr Petrov,Александр Петров,74.35,,,,-135,135,-145,,,,135,75,Amateur Juniors 20-23,M,B,Multi-ply,,135,,1990
1,Oleksandr Lisovskiy #1,Олександр Лісовський,80.8,,,,160,-167.5,-170,,,,160,82.5,Amateur Juniors 20-23,M,B,Multi-ply,,160,,1990
2,Dmitro Gavrilyuk,Дмитро Гаврилюк,79,,,,120,,,,,,120,82.5,Amateur Juniors 20-23,M,B,Multi-ply,,120,,1989
1,Mikhaylo Kozelchuk,Михайло Козельчук,99.7,,,,200,210,220,,,,220,100,Amateur Juniors 20-23,M,B,Multi-ply,,220,,1988
1,Aleksandr Petrov,Александр Петров,74.35,,,,-135,135,-145,,,,135,75,Amateur Open,M,B,Multi-ply,,135,,1990
1,Konstyantin Sapunkov,Констянтин Сапунков,82.5,,,,200,-205,205,,,,205,82.5,Amateur Open,M,B,Multi-ply,,205,,1981
2,Oleksandr Lisovskiy #1,Олександр Лісовський,80.8,,,,160,-167.5,-167.5,,,,160,82.5,Amateur Open,M,B,Multi-ply,,160,,1990
1,Rostislav Bondarenko,Ростислав Бондаренко,88.8,,,,-200,200,210,,,,210,90,Amateur Open,M,B,Multi-ply,,210,,1972
2,Yuriy Telichko,Юрій Теличко,85.95,,,,160,167.5,170,,,,170,90,Amateur Open,M,B,Multi-ply,,170,,1988
1,Volodimir Kolyada,Володимир Коляда,104.7,,,,170,180,-200,,,,180,110,Amateur Open,M,B,Multi-ply,,180,,1983
1,Oleksandr Shvab,Олександр Шваб,118.2,,,,185,200,,,,,200,125,Amateur Open,M,B,Multi-ply,,200,,1976
1,Vladislav Bondarenko,Владислав Бондаренко,32,,,,37.5,-40,-40,,,,37.5,44,Amateur Sub-Teen 11-12,M,B,Multi-ply,,37.5,,1999
1,Tetyana Kalugina,Тетяна Калугіна,60,,,,90,97.5,100,,,,100,60,Pro Open,F,B,Raw,,100,,1980
2,Lina Zubritska,Ліна Зубрицька,60,,,,85,92.5,97.5,,,,97.5,60,Pro Open,F,B,Raw,,97.5,,1988
1,Anna Kurkurina,Анна Куркуріна,73,,,,120,125,127.5,,,,127.5,75,Pro Open,F,B,Raw,,127.5,,1966
1,Anna Kurkurina,Анна Куркуріна,73,,,,120,125,127.5,,,,127.5,75,Pro Masters 45-49,F,B,Raw,,127.5,,1966
1,Lyudmila Tsvetkova,Людмила Цветкова,55,,,,47.5,50,52.5,,,,52.5,56,Pro Masters 50-54,F,B,Raw,,52.5,,1961
DQ,Irina Kabakova,Ирина Кабакова,67,,,,,,,,,,,67.5,Pro Masters 50-54,F,B,Raw,,,,1959
1,Yuriy Kasyan,Юрій Касьян,55,,,,50,55,-60,,,,55,56,Pro Teen 13-15,M,B,Raw,,55,,1996
1,Dmitro Shchotka,Дмитро Щотка,58,,,,50,55,60,,,,60,60,Pro Teen 13-15,M,B,Raw,,60,,1998
2,Sergiy Migas,Сергій Мигас,58,,,,52.5,57.5,-62.5,,,,57.5,60,Pro Teen 13-15,M,B,Raw,,57.5,,1996
1,Roman Matsyuk,Роман Мацюк,82.1,,,,90,-100,100,,,,100,82.5,Pro Teen 13-15,M,B,Raw,,100,,1996
1,Andriy Panasyuk,Андрій Панасюк,61.4,,,,80,87.5,-90,,,,87.5,67.5,Pro Teen 16-17,M,B,Raw,,87.5,,1994
1,Vitaliy Gayday,Віталій Гайдай,68.3,,,,90,100,102.5,,,,102.5,75,Pro Teen 16-17,M,B,Raw,,102.5,,1994
1,Ivan Tyutyunnik,Іван Тютюнник,79,,,,95,100,105,,,,105,82.5,Pro Teen 16-17,M,B,Raw,,105,,1995
DQ,Mikola Prishchepa,Микола Прищепа,86.7,,,,-165,-175,-175,,,,,90,Pro Teen 16-17,M,B,Raw,,,,1994
1,Evgeniy Omelchuk,Євгеній Омельчук,92.5,,,,125,135,150,,,,150,100,Pro Teen 16-17,M,B,Raw,,150,,1995
DQ,Mikola Samoylov,Микола Самойлов,66.1,,,,-112.5,-112.5,-112.5,,,,,67.5,Pro Teen 18-19,M,B,Raw,,,,1993
DQ,Vadim Ursatiy,Вадим Урсатій,73.7,,,,-120,-130,-130,,,,,75,Pro Teen 18-19,M,B,Raw,,,,1992
DQ,Eldar Gasanov,Ельдар Гасанов,74.5,,,,-125,-125,-125,,,,,75,Pro Teen 18-19,M,B,Raw,,,,1993
1,Andriy Zinkiv,Андрій Зіньків,77.1,,,,95,-100,102.5,,,,102.5,82.5,Pro Teen 18-19,M,B,Raw,,102.5,,1992
DQ,Sergiy Bragin,Сергій Брагін,67.4,,,,-130,,,,,,,67.5,Pro Juniors 20-23,M,B,Raw,,,,1991
1,Yuriy Grudko,Юрій Грудко,74.95,,,,-125,125,-135,,,,125,75,Pro Juniors 20-23,M,B,Raw,,125,,1990
1,Evgen Yatsinenko,Євген Яциненко,81,,,,130,,,,,,130,82.5,Pro Juniors 20-23,M,B,Raw,,130,,1988
1,Mikola Krasovskiy,Микола Красовський,99.7,,,,-150,150,157.5,,,,157.5,100,Pro Juniors 20-23,M,B,Raw,,157.5,,1989
2,Maksim Korol,Максим Король,97,,,,155,-165,-165,,,,155,100,Pro Juniors 20-23,M,B,Raw,,155,,1988
3,Oleksandr Vishnevskiy,Олександр Вишневський,98.1,,,,155,-162.5,-162.5,,,,155,100,Pro Juniors 20-23,M,B,Raw,,155,,1988
4,Viktor Kratko,Віктор Кратько,97.6,,,,145,150,-155,,,,150,100,Pro Juniors 20-23,M,B,Raw,,150,,1988
1,Oleksandr Dzhiviryaga,Олександр Дживиряга,104.4,,,,170,-175,-180,,,,170,110,Pro Juniors 20-23,M,B,Raw,,170,,1991
1,Petro Onishchuk,Петро Онищук,113.7,,,,-240,240,250,,,,250,125,Pro Juniors 20-23,M,B,Raw,,250,,1988
1,Vladislav Gorbenko,Владислав Горбенко,65,,,,100,105,107.5,,,,107.5,67.5,Pro Open,M,B,Raw,,107.5,,1972
1,Sergiy Melnik,Сергій Мельник,75,,,,150,157.5,-162.5,,,,157.5,75,Pro Open,M,B,Raw,,157.5,,1982
2,Dmitro Cherkay,Дмитро Черкай,72.3,,,,140,145,-150,,,,145,75,Pro Open,M,B,Raw,,145,,1985
1,Vyacheslav Modval,Вячеслав Модвал,79.4,,,,180,187.5,-195,,,,187.5,82.5,Pro Open,M,B,Raw,,187.5,,1985
2,Boris Trunov,Борис Трунов,81.8,,,,135,145,-150,,,,145,82.5,Pro Open,M,B,Raw,,145,,1981
3,Volodimir Kovalenko,Володимир Коваленко,77.1,,,,130,137.5,-140,,,,137.5,82.5,Pro Open,M,B,Raw,,137.5,,1985
4,Oleksandr Pryadko,Олександр Прядко,80.6,,,,125,135,-140,,,,135,82.5,Pro Open,M,B,Raw,,135,,1987
1,Oleksandr Shcherbakov,Олександр Щербаков,88.7,,,,200,215,-225,,,,215,90,Pro Open,M,B,Raw,,215,,1966
2,Rostislav Gerasimenko,Ростислав Герасименко,88.1,,,,155,165,-170,,,,165,90,Pro Open,M,B,Raw,,165,,1980
3,Volodimir Garbaruk,Володимир Гарбарук,89.2,,,,-165,165,-175,,,,165,90,Pro Open,M,B,Raw,,165,,1977
4,Volodimir Migas,Володимир Мигас,89,,,,145,155,160,,,,160,90,Pro Open,M,B,Raw,,160,,1975
1,Evgeniy Gamuryak,Евгений Гамуряк,100,,,,185,192.5,195,,,,195,100,Pro Open,M,B,Raw,,195,,1987
2,Maksim Kaydan,Максим Кайдан,98.6,,,,-187.5,-187.5,187.5,,,,187.5,100,Pro Open,M,B,Raw,,187.5,,1985
3,Valeriy Shkurdalov,Валерій Шкурдалов,96.4,,,,170,185,-190,,,,185,100,Pro Open,M,B,Raw,,185,,1974
4,Mikola Krasovskiy,Микола Красовський,99.7,,,,-150,150,157.5,,,,157.5,100,Pro Open,M,B,Raw,,157.5,,1989
5,Denis Kirilichev,Денис Кирилічев,91,,,,155,-162.5,-162.5,,,,155,100,Pro Open,M,B,Raw,,155,,1979
6,Anatoliy Pecherskiy,Анатолий Печерский,95.8,,,,-150,150,155,,,,155,100,Pro Open,M,B,Raw,,155,,1965
7,Maksim Korol,Максим Король,97,,,,155,-165,-165,,,,155,100,Pro Open,M,B,Raw,,155,,1988
1,Andrey Kisel,Андрей Кисель,105.4,,,,210,225,230,,,,230,110,Pro Open,M,B,Raw,,230,,1975
2,Oleg Palamarchuk,Олег Паламарчук,105.9,,,,200,210,215,,,,215,110,Pro Open,M,B,Raw,,215,,1972
3,Evgen Moskvichov,Євген Москвічов,108.1,,,,192.5,205,212.5,,,,212.5,110,Pro Open,M,B,Raw,,212.5,,1979
4,Volodimir Labenskiy,Володимир Лабенський,102.4,,,,160,170,-180,,,,170,110,Pro Open,M,B,Raw,,170,,1983
1,Petro Onishchuk,Петро Онищук,113.7,,,,-240,240,250,,,,250,125,Pro Open,M,B,Raw,,250,,1988
2,Pavlo Trigub,Павло Тригуб,122,,,,185,200,,,,,200,125,Pro Open,M,B,Raw,,200,,1973
1,Vadim Aliev #1,Вадим Алієв,75,,,,140,147.5,-150,,,,147.5,75,Pro Masters 40-44,M,B,Raw,,147.5,,1970
1,Vadim Chekhanyuk,Вадим Чеханюк,81.4,,,,155,162.5,-167.5,,,,162.5,82.5,Pro Masters 40-44,M,B,Raw,,162.5,,1970
1,Oleksandr Kolyadyuk,Олександр Колядюк,97.7,,,,160,170,-180,,,,170,100,Pro Masters 40-44,M,B,Raw,,170,,1969
1,Vladislav Fesun,Владислав Фесун,110,,,,140,150,-160,,,,150,110,Pro Masters 40-44,M,B,Raw,,150,,1967
DQ,Igor Pober,Ігор Побер,,,,,,,,,,,,125,Pro Masters 40-44,M,B,Raw,,,,1968
1,Igor Oshurkevich,Ігор Ошуркевич,72,,,,80,90,-100,,,,90,75,Pro Masters 45-49,M,B,Raw,,90,,1962
1,Igor Chumak,Ігор Чумак,79.9,,,,115,125,132.5,,,,132.5,82.5,Pro Masters 45-49,M,B,Raw,,132.5,,1966
1,Oleksandr Shcherbakov,Олександр Щербаков,88.7,,,,200,215,-225,,,,215,90,Pro Masters 45-49,M,B,Raw,,215,,1966
1,Anatoliy Pecherskiy,Анатолий Печерский,95.8,,,,-150,150,155,,,,155,100,Pro Masters 45-49,M,B,Raw,,155,,1965
1,Igor Lyutnitskiy,Ігор Лютницький,100.1,,,,100,110,-115,,,,110,110,Pro Masters 45-49,M,B,Raw,,110,,1965
1,Oleksiy Khromenkov,Олексій Хроменков,97,,,,127.5,135,-142.5,,,,135,100,Pro Masters 50-54,M,B,Raw,,135,,1957
1,Petro Lonyuk,Петро Лонюк,81,,,,115,122.5,125,,,,125,82.5,Pro Masters 55-59,M,B,Raw,,125,,1956
1,Sergiy Denisov,Сергій Денисов,99.9,,,,120,130,137.5,,,,137.5,100,Pro Masters 55-59,M,B,Raw,,137.5,,1956
1,Valeriy Kolyadyuk,Валерій Колядюк,103,,,,130,140,150,,,,150,110,Pro Masters 60-64,M,B,Raw,,150,,1949
1,Viktor Glushchenko,Віктор Глущенко,72.7,,,,107.5,115,-117.5,,,,115,75,Pro Masters 65-69,M,B,Raw,,115,,1942
1,Volodimir Migas,Володимир Мигас,89,,,,145,155,160,,,,160,90,Pro Submasters 33-39,M,B,Raw,,160,,1975
1,Ivan Shevchenko #1,Іван Шевченко,73.5,,,,125,-130,-130,,,,125,75,Pro Juniors 20-23,M,B,Multi-ply,,125,,1990
1,Vitaliy Sobkovskiy,Віталій Собковський,80.4,,,,175,-185,-185,,,,175,82.5,Pro Juniors 20-23,M,B,Multi-ply,,175,,1991
2,Evgen Yatsinenko,Євген Яциненко,81,,,,-160,160,-165,,,,160,82.5,Pro Juniors 20-23,M,B,Multi-ply,,160,,1988
DQ,Roman Pelikh,Роман Пелих,73.1,,,,-235,-235,-235,,,,,75,Pro Open,M,B,Multi-ply,,,,1985
DQ,Volodimir Starchenko,Володимир Старченко,81.3,,,,,,,,,,,82.5,Pro Open,M,B,Multi-ply,,,,1975
1,Dmitro Lomeyko,Дмитро Ломейко,87.8,,,,245,-260,-260,,,,245,90,Pro Open,M,B,Multi-ply,,245,,1983
2,Volodimir Galiga,Володимир Галига,89.7,,,,-205,205,210,,,,210,90,Pro Open,M,B,Multi-ply,,210,,1983
DQ,Sergiy Naleykin,Сергій Налейкін,,,,,,,,,,,,90,Pro Open,M,B,Multi-ply,,,,1981
DQ,Efim Stepatskiy,Єфим Степацький,90,,,,-195,-202.5,-202.5,,,,,90,Pro Open,M,B,Multi-ply,,,,1987
1,Volodimir Migas,Володимир Мигас,90.1,,,,210,225,,,,,225,100,Pro Open,M,B,Multi-ply,,225,,1975
2,Oleksiy Andriyanov,Олексій Андріянов,99.2,,,,170,-180,-185,,,,170,100,Pro Open,M,B,Multi-ply,,170,,1987
DQ,Valeriy Ternov,Валерій Тернов,116,,,,-290,-290,-300,,,,,125,Pro Open,M,B,Multi-ply,,,,1973
DQ,Roman Zuzuk,Роман Зузук,,,,,,,,,,,,75,Pro Masters 40-44,M,B,Multi-ply,,,,1971
DQ,Volodimir Starchenko,Володимир Старченко,81.3,,,,,,,,,,,82.5,Pro Submasters 33-39,M,B,Multi-ply,,,,1975
1,Volodimir Migas,Володимир Мигас,90.1,,,,210,225,,,,,225,100,Pro Submasters 33-39,M,B,Multi-ply,,225,,1975
DQ,Valeriy Ternov,Валерій Тернов,116,,,,-290,-290,-300,,,,,125,Pro Submasters 33-39,M,B,Multi-ply,,,,1973
