Name,WeightClassKg,Division,Best3SquatKg,Best3BenchKg,Best3DeadliftKg,TotalKg,Sex,Event,Equipment,Place,Team
JoAnne Clough,52,F-O,92.99,45.36,122.47,260.82,F,SBD,Single-ply,1,
JoAnne Clough,52,F-M4,92.99,45.36,122.47,260.82,F,SBD,Single-ply,1,
Penny Shaw,56,F-O,113.4,70.31,122.47,306.17,F,SBD,Single-ply,1,
Alena Simara,56,F-O,102.06,61.23,124.74,288.03,F,SBD,Single-ply,2,
Grace Parisi,56,F-O,97.52,45.36,117.93,260.82,F,SBD,Single-ply,3,
Grace Parisi,56,F-M3,97.52,45.36,117.93,260.82,F,SBD,Single-ply,1,
Diane Farrar,56,F-M2,77.11,49.9,90.72,217.72,F,SBD,Single-ply,1,
Pamela Morong,60,F-O,115.67,65.77,140.61,322.05,F,SBD,Single-ply,1,
Donna Slaga,67.5,F-O,129.27,95.25,158.76,383.29,F,SBD,Single-ply,1,
Pam McCann,67.5,F-M1,102.06,70.31,127.01,299.37,F,SBD,Single-ply,1,
Eileen Molloy,67.5,F-T2,108.86,58.97,95.25,263.08,F,SBD,Single-ply,1,
Eileen Molloy,67.5,F-O,108.86,58.97,95.25,263.08,F,SBD,Single-ply,2,
Theresa Michaels-War,67.5,F-M1,74.84,43.09,97.52,215.46,F,SBD,Single-ply,2,
Disa Hatfield,75,F-O,170.1,111.13,167.83,449.06,F,SBD,Single-ply,1,
Sonja McKinlay,75,F-M5,124.74,79.38,124.74,328.85,F,SBD,Single-ply,1,
Sharlynn Naylor,75,F-O,111.13,56.7,127.01,294.84,F,SBD,Single-ply,2,
Florette Ruggiero,82.5,F-O,129.27,72.57,140.61,342.46,F,SBD,Single-ply,1,
Florette Ruggiero,82.5,F-M4,129.27,72.57,140.61,342.46,F,SBD,Single-ply,1,
Lisa Stylos,82.5,F-O,92.99,56.7,102.06,251.74,F,SBD,Single-ply,2,
Allen Whigham,67.5,M-O,229.06,129.27,249.48,607.81,M,SBD,Single-ply,1,
Mike Petracca,67.5,M-O,204.12,129.27,208.65,542.04,M,SBD,Single-ply,2,
Mike Petracca,67.5,M-Jr,204.12,129.27,208.65,542.04,M,SBD,Single-ply,1,
Jason Petracca,67.5,M-T2,138.35,88.45,158.76,385.55,M,SBD,Single-ply,1,
Gene Marshall,75,M-O,249.48,174.63,247.21,671.32,M,SBD,Single-ply,1,
Gene Marshall,75,M-SM,249.48,174.63,247.21,671.32,M,SBD,Single-ply,1,
Steve Beaupre,75,M-O,244.94,174.63,240.4,659.98,M,SBD,Single-ply,2,
Randy Deleon,75,M-O,217.72,136.08,251.74,605.55,M,SBD,Single-ply,3,
Eric Cordeiro,75,M-O,204.12,124.74,199.58,528.44,M,SBD,Single-ply,4,
Eric Quintin,75,M-SM,163.29,136.08,181.44,480.81,M,SBD,Single-ply,2,
Ray Thibault,75,M-M1,167.83,151.95,158.76,478.54,M,SBD,Single-ply,1,
Dean Fragola,75,M-Jr,170.1,117.93,174.63,462.66,M,SBD,Single-ply,1,
Don Hilton,75,M-T2,136.08,102.06,181.44,419.57,M,SBD,Single-ply,1,
Bob Ayers,75,M-M5,113.4,70.31,156.49,340.19,M,SBD,Single-ply,1,
Sean DiCataldo,82.5,M-O,258.55,172.37,272.16,703.07,M,SBD,Single-ply,1,
Sean DiCataldo,82.5,M-SM,258.55,172.37,272.16,703.07,M,SBD,Single-ply,1,
Hal Scholmick,82.5,M-O,233.6,167.83,254.01,655.44,M,SBD,Single-ply,2,
Alex Yvars,82.5,M-M1,251.74,151.95,247.21,650.91,M,SBD,Single-ply,1,
Steven Ritucci,82.5,M-O,197.31,151.95,235.87,585.13,M,SBD,Single-ply,3,
Dan Poulos,82.5,M-O,181.44,129.27,244.94,555.65,M,SBD,Single-ply,4,
Dan Poulos,82.5,M-Jr,181.44,129.27,244.94,555.65,M,SBD,Single-ply,1,
Sam Alba,82.5,M-O,192.78,145.15,204.12,542.04,M,SBD,Single-ply,5,
Chip McCann,82.5,M-M2,174.63,147.42,192.78,514.83,M,SBD,Single-ply,1,
Mike Campbell,90,M-O,274.42,176.9,265.35,716.68,M,SBD,Single-ply,1,
Kevin Rossi,90,M-O,229.06,201.85,235.87,666.78,M,SBD,Single-ply,2,
Kevin Rossi,90,M-M1,229.06,201.85,235.87,666.78,M,SBD,Single-ply,1,
Dave Mansfield,90,M-M4,238.14,122.47,238.14,598.74,M,SBD,Single-ply,1,
Robert Rogers,90,M-M1,199.58,154.22,240.4,594.21,M,SBD,Single-ply,2,
Doug Morong,90,M-O,158.76,176.9,238.14,573.79,M,SBD,Single-ply,3,
Doug Morong,90,M-M2,158.76,176.9,238.14,573.79,M,SBD,Single-ply,1,
Bruce Topol,90,M-M2,190.51,163.29,192.78,546.58,M,SBD,Single-ply,2,
Dwayne Allen,90,M-M4,170.1,124.74,204.12,498.95,M,SBD,Single-ply,2,
John Pyrcz,90,M-T2,188.24,97.52,199.58,485.34,M,SBD,Single-ply,1,
Joe Rizza,90,M-M3,204.12,86.18,204.12,494.42,M,SBD,Single-ply,1,
Bryan Letson,90,M-M2,102.06,102.06,183.7,387.82,M,SBD,Single-ply,3,
Jason Nickerson,90,M-O,249.48,,,,M,SBD,Single-ply,DQ,
Geoffrey Esper,100,M-O,283.5,163.29,299.37,746.16,M,SBD,Single-ply,1,
Rene Moyen,100,M-O,244.94,163.29,256.28,664.51,M,SBD,Single-ply,2,
Lance Reardon,100,M-O,231.33,154.22,254.01,639.57,M,SBD,Single-ply,3,
George Sousa,100,M-O,231.33,158.76,244.94,635.03,M,SBD,Single-ply,4,
Mike Laliberte,100,M-O,226.8,142.88,235.87,605.55,M,SBD,Single-ply,5,
Frank Juszynski,100,M-O,206.38,131.54,238.14,576.06,M,SBD,Single-ply,6,
John Medeiros,100,M-M4,215.46,156.49,201.85,573.79,M,SBD,Single-ply,1,
Jacob Carpenter,100,M-Jr,192.78,158.76,208.65,560.19,M,SBD,Single-ply,1,
Jonathan Wild,100,M-M3,113.4,63.5,151.95,328.85,M,SBD,Single-ply,1,
Matthew Kurdok,100,M-SO,,79.38,102.06,,M,SBD,Single-ply,DQ,
Andrew Bender,100,M-M2,147.42,,,,M,SBD,Single-ply,DQ,
Jim Sexton,100,M-M1,,,,,M,SBD,Single-ply,DQ,
Phil Najemy,110,M-O,249.48,147.42,272.16,669.05,M,SBD,Single-ply,1,
Scott Gagnon,110,M-O,240.4,154.22,263.08,657.71,M,SBD,Single-ply,2,
Robert Troon,110,M-O,233.6,181.44,231.33,646.37,M,SBD,Single-ply,3,
Cory Wasniewski,110,M-T3,226.8,145.15,263.08,635.03,M,SBD,Single-ply,1,
Ryan Luchka,110,M-O,208.65,163.29,204.12,576.06,M,SBD,Single-ply,4,
Kiron Farris,110,M-Jr,188.24,142.88,215.46,546.58,M,SBD,Single-ply,1,
Butch Troiano,110,M-M3,158.76,174.63,192.78,526.17,M,SBD,Single-ply,1,
Sean Culnan,125,M-O,310.71,249.48,347,907.18,M,SBD,Single-ply,1,
Patrick Johnson,125,M-O,317.51,226.8,249.48,793.79,M,SBD,Single-ply,2,
Mark Griffin,125,M-O,,,,,M,SBD,Single-ply,DQ,
Guy Ziriak,125+,M-O,297.1,197.31,249.48,743.89,M,SBD,Single-ply,1,
