Place,Name,CyrillicName,Sex,BirthDate,Division,WeightClassKg,BodyweightKg,Squat1Kg,Squat2Kg,Squat3Kg,Best3SquatKg,Squat4Kg,Bench1Kg,Bench2Kg,Bench3Kg,Best3BenchKg,Bench4Kg,Deadlift1Kg,Deadlift2Kg,Deadlift3Kg,Best3DeadliftKg,Deadlift4Kg,TotalKg,Tested,Event,Equipment
1,Olga Roslyakova,Ольга Рослякова,F,1987-11-06,Open,44,43.70,77.5,80,85,85.0,,45,47.5,-50,47.5,,85,90,95,95.0,,227.5,No,SBD,Raw
1,Ekaterina Dakhina,Екатерина Дахина,F,1995-05-01,Juniors 20-23,48,47.90,85,87.5,-92.5,87.5,,52.5,55,-60,55.0,,97.5,-110,110,110.0,,252.5,No,SBD,Raw
1,Svetlana Fomicheva,Светлана Фомичева,F,1977-10-25,Masters 40-44,48,46.30,70,77.5,-82.5,77.5,,-42.5,42.5,-45,42.5,,80,87.5,100,100.0,,220.0,No,SBD,Raw
1,Anna Mamont,Анна Мамонт,F,1993-06-11,Open,52,48.50,82.5,87.5,-92.5,87.5,,52.5,57.5,-60,57.5,,110,120,-125,120.0,,265.0,No,SBD,Raw
2,Elizaveta Bryzgalova,Елизавета Брызгалова,F,1991-08-02,Open,52,51.60,85,-90,-92.5,85.0,,42.5,47.5,-50,47.5,,110,117.5,-127.5,117.5,,250.0,No,SBD,Raw
1,Mariya Kozlova,Мария Козлова,F,1984-06-29,Open,56,55.70,90,100,105,105.0,,65,70,75,75.0,,110,120,125,125.0,,305.0,No,SBD,Raw
1,Ekaterina Chernysheva,Екатерина Чернышева,F,1976-02-10,Open,60,59.60,85,92.5,95,95.0,,52.5,57.5,60,60.0,,120,130,-142.5,130.0,,285.0,No,SBD,Raw
2,Svetlana Zolotova,Светлана Золотова,F,1990-02-02,Open,60,58.60,70,75,-80,75.0,,-47.5,47.5,-50,47.5,,87.5,90,95,95.0,,217.5,No,SBD,Raw
1,Viktoriya Bryakkieva,Виктория Бряккиева,F,1981-07-26,Open,67.5,63.40,100,110,115,115.0,,65,70,75,75.0,,115,125,130,130.0,,320.0,No,SBD,Raw
2,Natalya Knyazeva,Наталья Князева,F,1970-07-16,Open,67.5,66.80,85,95,105,105.0,,55,60,-62.5,60.0,,125,135,145,145.0,,310.0,No,SBD,Raw
3,Anastasiya Biryukova,Анастасия Бирюкова,F,1991-04-28,Open,67.5,65.80,90,105,-115,105.0,,45,-52.5,52.5,52.5,,90,-117.5,117.5,117.5,,275.0,No,SBD,Raw
4,Anna Moskalenko,Анна Москаленко,F,1988-01-24,Open,67.5,63.90,-90,90,95,95.0,,42.5,-45,-47.5,42.5,,105,110,115,115.0,,252.5,No,SBD,Raw
5,Aleksandra Lozychenko,Александра Лозыченко,F,1991-10-17,Open,67.5,67.40,90,95,100,100.0,,45,47.5,-50,47.5,,-95,95,100,100.0,,247.5,No,SBD,Raw
1,Anna Stepanova,Анна Степанова,F,1957-02-15,Masters 60-64,67.5,61.60,70,-75,-77.5,70.0,,42.5,45,-47.5,45.0,,100,105,-107.5,105.0,,220.0,No,SBD,Raw
1,Ekaterina Lutchenko,Екатерина Лутченко,F,1984-04-02,Open,75,69.30,100,105,-107.5,105.0,,47.5,50,-55,50.0,,135,140,,140.0,,295.0,No,SBD,Raw
1,Artem Taratorkin,Артем Тараторкин,M,2002-07-05,Teen,56,55.90,100,110,115,115.0,,55,-60,-60,55.0,,115,122.5,-135,122.5,,292.5,No,SBD,Raw
1,Dmitriy Lashmanov,Дмитрий Лашманов,M,1996-01-05,Juniors 20-23,56,54.80,90,-100,-110,90.0,,62.5,70,-75,70.0,,117.5,130,-150,130.0,,290.0,No,SBD,Raw
1,Nikolay Kalyukov,Николай Калюков,M,1998-05-21,Juniors 20-23,67.5,66.10,110,120,-125,120.0,,80,85,-90,85.0,,145,155,-165,155.0,,360.0,No,SBD,Raw
1,Roman Georgievskiy,Роман Георгиевский,M,1991-07-03,Open,67.5,63.50,65,75,-82.5,75.0,,-55,62.5,67.5,67.5,,80,90,100,100.0,,242.5,No,SBD,Raw
DQ,Mikhail Kuzmin,Михаил Кузьмин,M,1991-10-31,Open,67.5,66.50,160,170,180,180.0,,-110,-110,-110,,,,,,,,,No,SBD,Raw
1,Sergey Timoshchuk,Сергей Тимощук,M,1998-12-11,Juniors 20-23,75,73.80,100,110,125,125.0,,85,-95,-95,85.0,,130,140,150,150.0,,360.0,No,SBD,Raw
1,Nikolay Serebrovskiy,Николай Серебровский,M,1985-03-17,Open,75,72.30,-125,130,-140,130.0,,95,-100,-100,95.0,,120,122.5,-130,122.5,,347.5,No,SBD,Raw
DQ,Mark Kovalevskiy,Марк Ковалевский,M,1996-04-13,Juniors 20-23,82.5,81.10,-170,-170,170,170.0,,-105,-105,-105,,,,,,,,,No,SBD,Raw
1,Maksim Novikov,Максим Новиков,M,1998-12-20,Open,82.5,81.90,230,240,245,245.0,,150,160,165,165.0,,250,260,270,270.0,,680.0,No,SBD,Raw
2,Artem Abdulbarov,Артем Абдулбаров,M,1983-09-30,Open,82.5,82.30,160,-170,175,175.0,,130,-135,-137.5,130.0,,170,190,-205,190.0,,495.0,No,SBD,Raw
3,Ivan Tulaev,Иван Тулаев,M,1988-03-16,Open,82.5,81.90,125,135,145,145.0,,120,-127.5,127.5,127.5,,130,145,155,155.0,,427.5,No,SBD,Raw
DQ,Aleksandr Khokhlov,Александр Хохлов,M,1987-05-16,Open,82.5,82.00,150,157.5,-165,157.5,,-102.5,-102.5,,,,,,,,,,No,SBD,Raw
1,Pavel Filimonov,Павел Филимонов,M,1999-09-09,Teen,90,90.00,-170,185,-200,185.0,,105,110,115,115.0,,195,202.5,-210,202.5,,502.5,No,SBD,Raw
1,Sergey Abrosimov,Сергей Абросимов,M,1985-06-04,Open,90,84.70,180,190,200,200.0,,135,140,,140.0,,210,225,-232.5,225.0,,565.0,No,SBD,Raw
2,Evgeniy Dmitrik,Евгений Дмитрик,M,1980-08-23,Open,90,88.20,-180,190,200,200.0,,125,130,135,135.0,,190,205,210,210.0,,545.0,No,SBD,Raw
3,Sergey Voroshilov,Сергей Ворошилов,M,1988-08-03,Open,90,88.50,160,170,180,180.0,,140,-150,-150,140.0,,200,-210,-210,200.0,,520.0,No,SBD,Raw
4,Dmitriy Egorov,Дмитрий Егоров,M,1989-01-07,Open,90,87.10,120,130,140,140.0,,100,110,115,115.0,,130,160,180,180.0,,435.0,No,SBD,Raw
DQ,Ruslan Shabatura,Руслан Шабатура,M,1985-04-20,Open,90,87.90,-150,150,160,160.0,,-95,-105,-105,,,,,,,,,No,SBD,Raw
1,Vladimir Karandashev,Владимир Карандашев,M,1972-03-12,Masters 45-49,90,87.80,160,-170,170,170.0,,135,140,145,145.0,,190,200,-205,200.0,,515.0,No,SBD,Raw
1,Zaur Matiev,Заур Матиев,M,1986-11-26,Open,100,96.60,240,250,255,255.0,,180,-185,185,185.0,,285,300,-305,300.0,,740.0,No,SBD,Raw
2,Vladimir Safonov,Владимир Сафонов,M,1987-03-21,Open,100,98.70,220,230,-237.5,230.0,,155,-162.5,162.5,162.5,,225,240,-250,240.0,,632.5,No,SBD,Raw
3,Evgeniy Sokolov,Евгений Соколов,M,1984-03-08,Open,100,99.00,185,195,205,205.0,,125,135,-137.5,135.0,,210,225,-240,225.0,,565.0,No,SBD,Raw
DQ,Nikita Popenkov,Никита Попенков,M,1998-03-18,Juniors 20-23,110,106.50,-200,-200,-200,,,,,,,,,,,,,,No,SBD,Raw
1,Timofey Ivanov,Тимофей Иванов,M,1985-09-20,Open,110,107.00,190,202.5,210,210.0,,145,150,-155,150.0,,200,215,220,220.0,,580.0,No,SBD,Raw
2,Mikhail Anchukov,Михаил Анчуков,M,1987-03-11,Open,110,107.00,-170,170,-180,170.0,,110,125,-130,125.0,,190,-210,-210,190.0,,485.0,No,SBD,Raw
3,Aleksey Shilyaev,Алексей Шиляев,M,1995-07-07,Open,110,106.00,100,110,-120,110.0,,80,90,100,100.0,,120,130,140,140.0,,350.0,No,SBD,Raw
1,Yuliya Abramova,Юлия Абрамова,F,1982-06-29,Open,56,55.30,105,112.5,-117.5,112.5,,47.5,52.5,57.5,57.5,,140,150,-155,150.0,,320.0,No,SBD,Raw
1,Elena Bondarchuk,Елена Бондарчук,F,1980-06-18,Open,60,58.70,107.5,115,117.5,117.5,,65,70,-72.5,70.0,,132.5,-142.5,142.5,142.5,,330.0,No,SBD,Raw
2,Lali Radzhabova,Лали Раджабова,F,1983-11-02,Open,60,60.00,80,-87.5,-90,80.0,,50,52.5,-55,52.5,,100,107.5,-112.5,107.5,,240.0,No,SBD,Raw
1,Kseniya Petrova,Ксения Петрова,F,1990-10-23,Open,75,69.10,67.5,75,-82.5,75.0,,42.5,45,47.5,47.5,,85,95,-102.5,95.0,,217.5,No,SBD,Raw
DQ,Andrey Budyanenko,Андрей Будяненко,M,1983-02-06,Open,82.5,80.40,-175,-175,-175,,,,,,,,,,,,,,No,SBD,Raw
1,Dmitriy Mukhin,Дмитрий Мухин,M,1983-05-15,Open,100,97.80,220,-230,232.5,232.5,,162.5,172.5,-180,172.5,,242.5,252.5,260,260.0,,665.0,No,SBD,Raw
2,Aleksey Kholunin,Алексей Холунин,M,1982-04-15,Open,100,95.00,180,195,-205,195.0,,160,175,-177.5,175.0,,200,215,-235,215.0,,585.0,No,SBD,Raw
1,Ivan Baklanov,Иван Бакланов,M,1983-04-16,Open,110,105.90,200,210,215,215.0,,170,180,185,185.0,,240,255,265,265.0,,665.0,No,SBD,Raw
1,Sergey Smirnov,Сергей Смирнов,M,1981-09-23,Open,125,121.80,240,-260,260,260.0,,160,170,172.5,172.5,,260,-280,-290,260.0,,692.5,No,SBD,Raw
1,Andrey Kapustin,Андрей Капустин,M,1977-02-18,Masters 40-44,125,121.70,210,230,-240,230.0,,200,210,,210.0,,260,270,,270.0,,710.0,No,SBD,Raw
1,Maksim Bezinskikh,Максим Безинских,M,1986-05-18,Open,140,129.30,242.5,257.5,-262.5,257.5,,182.5,192.5,-200,192.5,,245,260,267.5,267.5,,717.5,No,SBD,Raw
DQ,Evgeniy Dmitriev,Евгений Дмитриев,M,1995-11-02,Juniors 20-23,67.5,66.20,-130,-135,-135,,,,,,,,,,,,,,No,SBD,Wraps
1,Evgeniy Dorofeyskiy,Евгений Дорофейский,M,1995-09-14,Juniors 20-23,100,99.50,237.5,245,252.5,252.5,,157.5,165,-172.5,165.0,,250,262.5,275,275.0,,692.5,No,SBD,Wraps
1,Valeriy Veselov,Валерий Веселов,M,1983-06-15,Open,110,107.60,180,200,215,215.0,,140,147.5,155,155.0,,200,210,225,225.0,,595.0,No,SBD,Wraps
DQ,Ruslan Tavtilov,Руслан Тавтилов,M,1980-02-26,Open,82.5,82.50,-240,-240,-240,,,,,,,,,,,,,,No,SBD,Wraps
1,Dmitriy Yaskevich,Дмитрий Яскевич,M,1997-01-24,Juniors 20-23,90,87.10,210,-217.5,220,220.0,,117.5,122.5,127.5,127.5,,225,235,240,240.0,,587.5,No,SBD,Wraps
1,Andrey Mameshin,Андрей Мамешин,M,1988-02-17,Open,100,93.30,-215,222.5,230,230.0,,160,170,175,175.0,,240,250,-257.5,250.0,,655.0,No,SBD,Wraps
2,Timur Klimenko,Тимур Клименко,M,1988-01-15,Open,100,98.70,230,-240,-240,230.0,,140,-150,-150,140.0,,260,270,-275,270.0,,640.0,No,SBD,Wraps
1,Aleksandr Komkov,Александр Комков,M,1983-11-26,Open,125,122.00,315,-325,330,330.0,,200,207.5,212.5,212.5,,270,280,-290,280.0,,822.5,No,SBD,Wraps
1,Anna Kremleva,Анна Кремлева,F,1990-06-22,Open,60,58.70,,,,,,40,-45,-45,40.0,,95,100,,100.0,,140.0,No,BD,Raw
2,Varvara Rogozina,Варвара Рогозина,F,1992-11-17,Open,60,60.00,,,,,,42.5,45,-47.5,45.0,,85,90,95,95.0,,140.0,No,BD,Raw
1,Evgeniya Knyazeva,Евгения Князева,F,1995-03-24,Open,67.5,64.90,,,,,,50,55,60,60.0,,90,100,110,110.0,,170.0,No,BD,Raw
2,Svetlana Pchelkina,Светлана Пчелкина,F,1986-08-18,Open,67.5,64.00,,,,,,42.5,47.5,-52.5,47.5,,100,105,110,110.0,,157.5,No,BD,Raw
3,Aleksandra Lozychenko,Александра Лозыченко,F,1991-10-17,Open,67.5,67.40,,,,,,45,47.5,-50,47.5,,-95,95,100,100.0,,147.5,No,BD,Raw
1,Nikita Bushmanov,Никита Бушманов,M,1992-06-04,Open,75,70.40,,,,,,80,85,92.5,92.5,,130,137.5,150,150.0,,242.5,No,BD,Raw
1,Aleksey Vashchenko,Алексей Ващенко,M,1986-06-22,Open,82.5,79.00,,,,,,130,135,140,140.0,,215,225,-230,225.0,,365.0,No,BD,Raw
2,Roman Klishch,Роман Клищ,M,1992-03-29,Open,82.5,80.90,,,,,,-135,135,-140,135.0,,160,170,177.5,177.5,,312.5,No,BD,Raw
3,Ilya Martynov,Илья Мартынов,M,1986-04-29,Open,82.5,82.30,,,,,,107.5,110,-112.5,110.0,,160,170,-177.5,170.0,,280.0,No,BD,Raw
1,Pavel Filimonov,Павел Филимонов,M,1999-09-09,Teen,90,90.00,,,,,,105,110,115,115.0,,195,202.5,-210,202.5,,317.5,No,BD,Raw
1,Aleksandr Russkikh,Александр Русских,M,1987-05-04,Open,90,87.70,,,,,,-135,135,,135.0,,230,240,250,250.0,,385.0,No,BD,Raw
2,Sergey Abrosimov,Сергей Абросимов,M,1985-06-04,Open,90,84.70,,,,,,135,140,,140.0,,210,225,-232.5,225.0,,365.0,No,BD,Raw
3,Evgeniy Dmitrik,Евгений Дмитрик,M,1980-08-23,Open,90,88.20,,,,,,125,130,135,135.0,,190,205,210,210.0,,345.0,No,BD,Raw
1,Andrey Ilin,Андрей Ильин,M,1988-03-13,Open,100,97.10,,,,,,-125,125,132.5,132.5,,205,220,-225,220.0,,352.5,No,BD,Raw
2,Daniil Malobitskiy,Даниил Малобицкий,M,1993-09-28,Open,100,100.00,,,,,,80,-90,90,90.0,,175,185,200,200.0,,290.0,No,BD,Raw
1,Ruslan Tavtilov,Руслан Тавтилов,M,1980-02-26,Open,82.5,82.50,,,,,,140,147.5,150,150.0,,250,260,-270,260.0,,410.0,No,BD,Raw
1,Dmitriy Timofeev,Дмитрий Тимофеев,M,1987-02-21,Open,90,89.10,,,,,,175,182.5,-187.5,182.5,,305,320,-330,320.0,,502.5,No,BD,Raw
1,Andrey Rashchupkin,Андрей Ращупкин,M,1989-02-28,Open,110,104.10,,,,,,125,135,140,140.0,,-165,165,180,180.0,,320.0,No,BD,Raw
1,Aleksandra Makeeva,Александра Макеева,F,1990-02-07,Open,44,43.60,55,67.5,-70,67.5,,,,,,,,,,,,67.5,No,S,Raw
1,Svetlana Fomicheva,Светлана Фомичева,F,1977-10-25,Masters 40-44,48,46.30,70,77.5,-82.5,77.5,,,,,,,,,,,,77.5,No,S,Raw
1,Evgeniy Dmitrik,Евгений Дмитрик,M,1980-08-23,Open,90,88.20,-180,190,200,200.0,,,,,,,,,,,,200.0,No,S,Raw
1,Sergey Surikov,Сергей Суриков,M,1985-03-30,Open,90,87.30,-140,140,145,145.0,,,,,,,,,,,,145.0,No,S,Raw
1,Ekaterina Dakhina,Екатерина Дахина,F,1995-05-01,Juniors 20-23,48,47.90,,,,,,52.5,55,-60,55.0,,,,,,,55.0,No,B,Raw
1,Yuliya Vereshchagina,Юлия Верещагина,F,1985-08-06,Open,48,46.80,,,,,,42.5,45,-47.5,45.0,,,,,,,45.0,No,B,Raw
1,Mariya Kozlova,Мария Козлова,F,1984-06-29,Open,56,55.70,,,,,,65,70,75,75.0,,,,,,,75.0,No,B,Raw
2,Elena Svetlova,Елена Светлова,F,1988-06-01,Open,56,52.30,,,,,,65,70,,70.0,,,,,,,70.0,No,B,Raw
DQ,Svetlana Alekseeva,Светлана Алексеева,F,1978-08-07,Masters 40-44,56,53.10,,,,,,-55,-60,-62.5,,,,,,,,,No,B,Raw
1,Yuliya Sadovnikova,Юлия Садовникова,F,1983-06-26,Open,60,58.60,,,,,,55,57.5,-60,57.5,,,,,,,57.5,No,B,Raw
2,Mariya Polukhina,Мария Полухина,F,1990-12-08,Open,60,57.60,,,,,,37.5,42.5,45,45.0,,,,,,,45.0,No,B,Raw
1,Lidiya Surkina,Лидия Суркина,F,1972-06-06,Masters 45-49,60,56.90,,,,,,50,-55,-57.5,50.0,,,,,,,50.0,No,B,Raw
2,Olga Andriyanova,Ольга Андриянова,F,1972-02-09,Masters 45-49,60,58.60,,,,,,47.5,-50,-50,47.5,,,,,,,47.5,No,B,Raw
1,Oleg Tityuk,Олег Титюк,M,2001-10-20,Teen,67.5,66.00,,,,,,90,95,100,100.0,,,,,,,100.0,No,B,Raw
1,Aleksey Filipskiy,Алексей Филипский,M,1984-11-04,Open,67.5,66.20,,,,,,105,110,117.5,117.5,,,,,,,117.5,No,B,Raw
1,Vladislav Bolshakov,Владислав Большаков,M,1990-05-21,Open,75,73.10,,,,,,165,170,175,175.0,,,,,,,175.0,No,B,Raw
2,Denis Ivanchishin,Денис Иванчишин,M,1984-01-11,Open,75,72.80,,,,,,125,130,135,135.0,,,,,,,135.0,No,B,Raw
3,Vitaliy Startsev,Виталий Старцев,M,1982-07-19,Open,75,74.20,,,,,,112.5,117.5,125,125.0,,,,,,,125.0,No,B,Raw
4,Artyom Bornyakov,Артём Борняков,M,1989-10-18,Open,75,74.80,,,,,,-125,125,-135,125.0,,,,,,,125.0,No,B,Raw
5,Vasiliy Ivanov,Василий Иванов,M,1988-12-22,Open,75,73.90,,,,,,115,120,122.5,122.5,,,,,,,122.5,No,B,Raw
6,Aleksey Igonin,Алексей Игонин,M,1991-10-11,Open,75,74.40,,,,,,117.5,120,-135,120.0,,,,,,,120.0,No,B,Raw
7,Vyacheslav Lobanov,Вячеслав Лобанов,M,1988-07-15,Open,75,73.60,,,,,,105,107.5,117.5,117.5,,,,,,,117.5,No,B,Raw
8,Sergey Lebedev,Сергей Лебедев,M,1987-05-18,Open,75,72.50,,,,,,95,105,-110,105.0,,,,,,,105.0,No,B,Raw
9,Roman Shkuratov,Роман Шкуратов,M,1991-08-10,Open,75,74.10,,,,,,100,-105,-105,100.0,,,,,,,100.0,No,B,Raw
10,Igor Lisovskiy,Игорь Лисовский,M,1983-04-20,Open,75,70.40,,,,,,90,95,-100,95.0,,,,,,,95.0,No,B,Raw
1,Ilya Pichikov,Илья Пичиков,M,2001-08-18,Teen,82.5,81.10,,,,,,140,150,155,155.0,,,,,,,155.0,No,B,Raw
2,Denis Ostapenko,Денис Остапенко,M,1999-11-19,Teen,82.5,81.20,,,,,,117.5,125,130,130.0,,,,,,,130.0,No,B,Raw
3,Evgeniy Tseyklin,Евгений Цейклин,M,2000-09-17,Teen,82.5,76.10,,,,,,110,115,120,120.0,,,,,,,120.0,No,B,Raw
1,Matvey Lukashuk,Матвей Лукашук,M,1998-03-06,Juniors 20-23,82.5,76.20,,,,,,110,117.5,127.5,127.5,,,,,,,127.5,No,B,Raw
1,Aleksandr Vladimirov,Александр Владимиров,M,1982-02-06,Open,82.5,78.20,,,,,,160,170,-175,170.0,,,,,,,170.0,No,B,Raw
2,Yuriy Litvinenko,Юрий Литвиненко,M,1989-08-24,Open,82.5,82.30,,,,,,-160,160,-167.5,160.0,,,,,,,160.0,No,B,Raw
3,Aleksey Ivanov,Алексей Иванов,M,1987-07-12,Open,82.5,80.20,,,,,,140,145,-147.5,145.0,,,,,,,145.0,No,B,Raw
4,Aleksandr Ligay,Александр Лигай,M,1987-03-21,Open,82.5,80.60,,,,,,140,145,-150,145.0,,,,,,,145.0,No,B,Raw
5,Roman Klishch,Роман Клищ,M,1992-03-29,Open,82.5,80.90,,,,,,-135,135,-140,135.0,,,,,,,135.0,No,B,Raw
6,Aleksey Bondarev,Алексей Бондарев,M,1980-04-14,Open,82.5,79.30,,,,,,127.5,132.5,-137.5,132.5,,,,,,,132.5,No,B,Raw
7,Dmitriy Yanushkevich,Дмитрий Янушкевич,M,1987-12-16,Open,82.5,78.90,,,,,,102.5,112.5,127.5,127.5,,,,,,,127.5,No,B,Raw
8,Ivan Tulaev,Иван Тулаев,M,1988-03-16,Open,82.5,81.90,,,,,,127.5,,,127.5,,,,,,,127.5,No,B,Raw
1,Stanislav Rusinov,Станислав Русинов,M,1978-04-21,Masters 40-44,82.5,81.30,,,,,,140,145,150,150.0,,,,,,,150.0,No,B,Raw
1,Dmitriy Smirnov,Дмитрий Смирнов,M,1965-05-12,Masters 50-54,82.5,80.50,,,,,,120,-127.5,-127.5,120.0,,,,,,,120.0,No,B,Raw
1,Viktor Reshetnikov,Виктор Решетников,M,2001-06-29,Teen,90,84.90,,,,,,105,107.5,110,110.0,,,,,,,110.0,No,B,Raw
1,Aleksandr Petrov,Александр Петров,M,1984-03-03,Open,90,89.60,,,,,,160,165,-170,165.0,,,,,,,165.0,No,B,Raw
2,Nikita Taldykin,Никита Талдыкин,M,1989-11-04,Open,90,89.00,,,,,,145,152.5,157.5,157.5,,,,,,,157.5,No,B,Raw
3,Anton Antonov,Антон Антонов,M,1989-03-07,Open,90,85.70,,,,,,-150,152.5,-157.5,152.5,,,,,,,152.5,No,B,Raw
4,Vladimir Krasivykh,Владимир Красивых,M,1982-09-11,Open,90,87.20,,,,,,130,140,-145,140.0,,,,,,,140.0,No,B,Raw
5,Nikolay Strugovshchikov,Николай Струговщиков,M,1983-04-29,Open,90,88.00,,,,,,125,132.5,135,135.0,,,,,,,135.0,No,B,Raw
6,Maksim Neshchadim,Максим Нещадим,M,1994-06-30,Open,90,88.10,,,,,,-127.5,127.5,132.5,132.5,,,,,,,132.5,No,B,Raw
7,Aleksandr Barbashov,Александр Барбашов,M,1985-08-01,Open,90,87.90,,,,,,125,-130,-130,125.0,,,,,,,125.0,No,B,Raw
8,Denis Vladykin,Денис Владыкин,M,1987-06-01,Open,90,86.80,,,,,,85,90,-95,90.0,,,,,,,90.0,No,B,Raw
1,Dmitriy Klyukvin,Дмитрий Клюквин,M,1977-06-08,Masters 40-44,90,87.70,,,,,,135,140,-145,140.0,,,,,,,140.0,No,B,Raw
1,Igor Ermolaev,Игорь Ермолаев,M,1974-03-15,Masters 45-49,90,84.20,,,,,,160,-165,-165,160.0,,,,,,,160.0,No,B,Raw
1,Ruslan Zhelkobaev,Руслан Желкобаев,M,2000-08-30,Teen,100,98.90,,,,,,115,122.5,125,125.0,,,,,,,125.0,No,B,Raw
1,Sergey Krasavchikov,Сергей Красавчиков,M,1980-11-12,Open,100,96.50,,,,,,185,-195,-195,185.0,,,,,,,185.0,No,B,Raw
2,Aleksandr Vagushov,Александр Вагушов,M,1983-03-17,Open,100,97.50,,,,,,170,175,-180,175.0,,,,,,,175.0,No,B,Raw
3,Viktor Shlenchak,Виктор Шленчак,M,1984-04-22,Open,100,93.10,,,,,,160,165,170,170.0,,,,,,,170.0,No,B,Raw
4,Vladimir Safonov,Владимир Сафонов,M,1987-03-21,Open,100,98.70,,,,,,155,-162.5,162.5,162.5,,,,,,,162.5,No,B,Raw
5,Andrey Rabinkov,Андрей Рабинков,M,1983-08-30,Open,100,98.20,,,,,,145,-150,-150,145.0,,,,,,,145.0,No,B,Raw
6,Oleg Gunchenkov,Олег Гунченков,M,1991-09-19,Open,100,97.70,,,,,,142.5,-147.5,-147.5,142.5,,,,,,,142.5,No,B,Raw
7,Kirill Shitikov,Кирилл Шитиков,M,1985-07-02,Open,100,99.30,,,,,,130,140,-142.5,140.0,,,,,,,140.0,No,B,Raw
8,Vyacheslav Arkhipov #2,В'ячеслав Архіпов,M,1995-02-08,Open,100,98.50,,,,,,125,130,-140,130.0,,,,,,,130.0,No,B,Raw
1,Aleksey Balenkov,Алексей Баленков,M,1974-06-30,Masters 40-44,100,97.60,,,,,,130,132.5,-135,132.5,,,,,,,132.5,No,B,Raw
1,Aleksandr Syropyatov,Александр Сыропятов,M,1973-04-29,Masters 45-49,100,92.00,,,,,,130,135,-140,135.0,,,,,,,135.0,No,B,Raw
1,Viktor Smyshlyaev,Виктор Смышляев,M,1962-05-20,Masters 55-59,100,99.90,,,,,,140,150,-155,150.0,,,,,,,150.0,No,B,Raw
1,Kirill Ostapenko,Кирилл Остапенко,M,1977-10-19,Open,110,105.50,,,,,,167.5,175,-180,175.0,,,,,,,175.0,No,B,Raw
2,Dmitriy Slepnyov,Дмитрий Слепнёв,M,1980-08-18,Open,110,106.80,,,,,,157.5,162.5,167.5,167.5,,,,,,,167.5,No,B,Raw
3,Aleksandr Kuznetsov #30,Александр Кузнецов,M,1988-06-03,Open,110,107.30,,,,,,142.5,147.5,155,155.0,,,,,,,155.0,No,B,Raw
1,Kirill Ostapenko,Кирилл Остапенко,M,1977-10-19,Masters 40-44,110,105.50,,,,,,167.5,175,-180,175.0,,,,,,,175.0,No,B,Raw
1,Aleksey Saitov,Алексей Саитов,M,1973-09-05,Masters 45-49,110,107.30,,,,,,172.5,177.5,-182.5,177.5,,,,,,,177.5,No,B,Raw
1,Nikolay Terentev,Николай Терентьев,M,1991-04-29,Open,125,119.50,,,,,,197.5,202.5,-207.5,202.5,,,,,,,202.5,No,B,Raw
2,Aleksandr Nikolaev,Александр Николаев,M,1985-09-21,Open,125,112.50,,,,,,152.5,-160,-160,152.5,,,,,,,152.5,No,B,Raw
1,Nikolay Demennik,Николай Деменник,M,1983-11-04,Open,140,138.70,,,,,,190,195,-197.5,195.0,,,,,,,195.0,No,B,Raw
2,Dmitriy Kozlov #13,Дмитрий Козлов,M,1989-08-01,Open,140,133.80,,,,,,-150,150,160,160.0,,,,,,,160.0,No,B,Raw
1,Aleksandra Akhmetyanova,Александра Ахметьянова,F,1987-06-18,Open,67.5,66.20,,,,,,90,-95,-95,90.0,,,,,,,90.0,No,B,Raw
2,Tatyana Bodylevskaya,Татьяна Бодылевская,F,1980-06-27,Open,67.5,67.50,,,,,,50,52.5,-57.5,52.5,,,,,,,52.5,No,B,Raw
1,Marina Savenko,Марина Савенко,F,1992-02-07,Open,75,70.90,,,,,,-40,-45,45,45.0,,,,,,,45.0,No,B,Raw
1,Vladimir Gerasimchuk,Владимир Герасимчук,M,1972-10-08,Open,67.5,66.60,,,,,,65,75,-80,75.0,,,,,,,75.0,No,B,Raw
1,Anton Egorov,Антон Егоров,M,1990-04-15,Open,75,72.20,,,,,,125,130,-135,130.0,,,,,,,130.0,No,B,Raw
2,Dmitriy Radko,Дмитрий Радько,M,1987-10-16,Open,75,72.20,,,,,,120,-130,-130,120.0,,,,,,,120.0,No,B,Raw
1,Evgeniy Kochurov,Евгений Кочуров,M,1987-09-26,Open,82.5,81.70,,,,,,-130,142.5,-145,142.5,,,,,,,142.5,No,B,Raw
1,Dzhalil Akhunzhanov,Джалиль Ахунжанов,M,1976-03-20,Open,90,87.50,,,,,,175,180,185,185.0,,,,,,,185.0,No,B,Raw
2,Sergey Kiselev,Сергей Киселев,M,1985-05-27,Open,90,89.70,,,,,,162.5,170,-175,170.0,,,,,,,170.0,No,B,Raw
1,Dzhalil Akhunzhanov,Джалиль Ахунжанов,M,1976-03-20,Masters 40-44,90,87.50,,,,,,175,180,185,185.0,,,,,,,185.0,No,B,Raw
1,Eduard Pushkarev,Эдуард Пушкарев,M,1968-12-08,Masters 50-54,90,88.60,,,,,,-160,160,165,165.0,,,,,,,165.0,No,B,Raw
1,Aleksandr Mikhaylov,Александр Михайлов,M,1958-12-09,Masters 60-64,90,89.30,,,,,,85,92.5,-100,92.5,,,,,,,92.5,No,B,Raw
DQ,Beybala Magomedov,Бейбала Магомедов,M,1988-11-22,Open,100,97.70,,,,,,-170,-170,-170,,,,,,,,,No,B,Raw
1,Aleksandr Lagutin,Александр Лагутин,M,1961-04-09,Masters 55-59,100,96.60,,,,,,130,135,140,140.0,,,,,,,140.0,No,B,Raw
2,Boris Kozhin,Борис Кожин,M,1960-05-03,Masters 55-59,100,95.30,,,,,,110,120,135,135.0,,,,,,,135.0,No,B,Raw
1,Mikhail Komisarov,Михаил Комисаров,M,1995-08-23,Juniors 20-23,110,101.70,,,,,,150,-160,160,160.0,,,,,,,160.0,No,B,Raw
1,Aleksey Pukhov,Алексей Пухов,M,1974-02-08,Open,110,107.70,,,,,,210,222.5,-227.5,222.5,,,,,,,222.5,No,B,Raw
2,Denis Deryagin,Денис Дерягин,M,1980-02-28,Open,110,109.60,,,,,,200,210,-212.5,210.0,,,,,,,210.0,No,B,Raw
1,Aleksey Pukhov,Алексей Пухов,M,1974-02-08,Masters 45-49,110,107.70,,,,,,210,222.5,-227.5,222.5,,,,,,,222.5,No,B,Raw
1,Aleksey Mikhaylov,Алексей Михайлов,M,1986-07-23,Open,125,116.90,,,,,,210,220,230,230.0,,,,,,,230.0,No,B,Raw
2,Ilya Yaminskiy,Илья Яминский,M,1990-12-04,Open,125,121.40,,,,,,200,210,-215,210.0,,,,,,,210.0,No,B,Raw
3,Vasiliy Vdovenko,Василий Вдовенко,M,1987-09-04,Open,125,121.40,,,,,,202.5,-205,-205,202.5,,,,,,,202.5,No,B,Raw
1,Andrey Kapustin,Андрей Капустин,M,1977-02-18,Masters 40-44,125,121.70,,,,,,200,210,,210.0,,,,,,,210.0,No,B,Raw
1,Aleksandr Efimenkov,Александр Ефименков,M,1958-09-09,Masters 60-64,125,115.90,,,,,,170,180,202.5,202.5,,,,,,,202.5,No,B,Raw
1,Vladimir Kazantsev,Владимир Казанцев,M,1992-04-18,Open,140,129.50,,,,,,210,-225,-225,210.0,,,,,,,210.0,No,B,Raw
1,Andrey Peshkov,Андрей Пешков,M,1963-11-05,Masters 55-59,140,128.40,,,,,,185,190,-195,190.0,,,,,,,190.0,No,B,Raw
1,Stanislav Milenin,Станислав Миленин,M,1975-07-04,Masters 40-44,75,73.20,,,,,,130,140,150,150.0,,,,,,,150.0,No,B,Multi-ply
1,Igor Ivanov #1,Игорь Иванов,M,1968-08-05,Open,90,90.00,,,,,,210,220,230,230.0,,,,,,,230.0,No,B,Multi-ply
1,Igor Ivanov #1,Игорь Иванов,M,1968-08-05,Masters 50-54,90,90.00,,,,,,210,220,230,230.0,,,,,,,230.0,No,B,Multi-ply
1,Viktor Smyshlyaev,Виктор Смышляев,M,1962-05-20,Masters 55-59,100,99.90,,,,,,185,202.5,220,220.0,,,,,,,220.0,No,B,Multi-ply
1,Evgeniy Vasilev,Евгений Васильев,M,1983-08-15,Open,82.5,82.20,,,,,,280,-295,-295,280.0,,,,,,,280.0,No,B,Multi-ply
1,Pavel Karabanov,Павел Карабанов,M,1986-12-30,Open,90,83.70,,,,,,-210,210,-235,210.0,,,,,,,210.0,No,B,Multi-ply
2,Vladislav Panov,Владислав Панов,M,1994-05-26,Open,90,89.10,,,,,,180,-192.5,-192.5,180.0,,,,,,,180.0,No,B,Multi-ply
1,Aleksandr Altukhov,Александр Алтухов,M,1989-03-31,Open,100,96.70,,,,,,-225,225,237.5,237.5,,,,,,,237.5,No,B,Multi-ply
1,Vasiliy Vdovenko,Василий Вдовенко,M,1987-09-04,Open,125,121.40,,,,,,-270,-300,300,300.0,,,,,,,300.0,No,B,Multi-ply
1,Aleksandr Shishlenin,Александр Шишленин,M,1977-03-12,Open,90,88.10,,,,,,-195,-197.5,197.5,197.5,,,,,,,197.5,No,B,Single-ply
2,Andrey Ivanov,Андрей Иванов,M,1982-10-06,Open,90,83.90,,,,,,145,150,155,155.0,,,,,,,155.0,No,B,Single-ply
1,Aleksandr Anfarovich,Александр Анфарович,M,1961-12-03,Open,82.5,81.30,,,,,,125,-130,130,130.0,,,,,,,130.0,No,B,Single-ply
1,Aleksandr Anfarovich,Александр Анфарович,M,1961-12-03,Masters 55-59,82.5,81.30,,,,,,125,-130,130,130.0,,,,,,,130.0,No,B,Single-ply
DQ,Konstantin Kravtsov,Константин Кравцов,M,1982-10-26,Open,100,98.40,,,,,,-220,-225,-225,,,,,,,,,No,B,Single-ply
1,Tagir Kayaev,Тагир Каяев,M,1964-10-14,Masters 50-54,100,95.30,,,,,,-190,-195,200,200.0,,,,,,,200.0,No,B,Single-ply
1,Ekaterina Dakhina,Екатерина Дахина,F,1995-05-01,Juniors 20-23,48,47.90,,,,,,,,,,,97.5,-110,110,110.0,,110.0,No,D,Raw
1,Tatyana Grosheva,Татьяна Грошева,F,1971-01-06,Masters 45-49,48,46.70,,,,,,,,,,,100,105,-110,105.0,,105.0,No,D,Raw
1,Elizaveta Bryzgalova,Елизавета Брызгалова,F,1991-08-02,Open,52,51.60,,,,,,,,,,,110,117.5,-127.5,117.5,,117.5,No,D,Raw
2,Ekaterina Rutsko,Екатерина Руцко,F,1979-08-18,Open,52,51.90,,,,,,,,,,,80,95,-100,95.0,,95.0,No,D,Raw
1,Natalya Pilipyuk,Наталья Пилипюк,F,1983-12-21,Open,56,54.50,,,,,,,,,,,137.5,-145,-145,137.5,,137.5,No,D,Raw
1,Anna Zinchenko,Анна Зинченко,F,1998-02-11,Open,60,56.50,,,,,,,,,,,115,132.5,,132.5,,132.5,No,D,Raw
1,Anna Moskalenko,Анна Москаленко,F,1988-01-24,Open,67.5,63.90,,,,,,,,,,,105,110,115,115.0,,115.0,No,D,Raw
2,Olga Yakovleva,Ольга Яковлева,F,1988-07-28,Open,67.5,63.90,,,,,,,,,,,100,105,110,110.0,,110.0,No,D,Raw
1,Ekaterina Lutchenko,Екатерина Лутченко,F,1984-04-02,Open,75,69.30,,,,,,,,,,,135,140,,140.0,,140.0,No,D,Raw
1,Daniil Butin,Даниил Бутин,M,2002-11-07,Teen,60,57.10,,,,,,,,,,,115,-120,-120,115.0,,115.0,No,D,Raw
1,Daniil Shein,Даниил Шеин,M,2002-12-12,Teen,67.5,63.70,,,,,,,,,,,-130,-140,140,140.0,,140.0,No,D,Raw
1,Mikhail Kuzmin,Михаил Кузьмин,M,1991-10-31,Open,67.5,66.50,,,,,,,,,,,170,180,190,190.0,,190.0,No,D,Raw
DQ,Andrey Nesterenko,Андрей Нестеренко,M,1986-06-22,Open,67.5,66.40,,,,,,,,,,,-210,-210,-210,,,,No,D,Raw
1,Fikrot Seidov,Фикрот Сеидов,M,2002-06-21,Teen,75,72.20,,,,,,,,,,,-160,170,180,180.0,,180.0,No,D,Raw
2,Visal Seidov,Висал Сеидов,M,2003-09-09,Teen,75,68.90,,,,,,,,,,,150,167.5,-177.5,167.5,,167.5,No,D,Raw
3,Dmitriy Stolyarov,Дмитрий Столяров,M,2002-06-29,Teen,75,73.10,,,,,,,,,,,-122.5,122.5,-142.5,122.5,,122.5,No,D,Raw
1,Dmitriy Kolesov,Дмитрий Колесов,M,2000-03-11,Teen,82.5,80.90,,,,,,,,,,,160,190,-220,190.0,,190.0,No,D,Raw
1,Evgeniy Lukashevich,Евгений Лукашевич,M,1994-01-03,Open,82.5,80.00,,,,,,,,,,,270,285,-302.5,285.0,,285.0,No,D,Raw
2,Vasiliy Plechistov,Василий Плечистов,M,1993-07-31,Open,82.5,80.00,,,,,,,,,,,190,195,200,200.0,,200.0,No,D,Raw
3,Vladmir Ivanov,Владмир Иванов,M,1990-06-13,Open,82.5,81.50,,,,,,,,,,,180,-182.5,-190,180.0,,180.0,No,D,Raw
4,Aleksandr Khokhlov,Александр Хохлов,M,1987-05-16,Open,82.5,82.00,,,,,,,,,,,180,-190,,180.0,,180.0,No,D,Raw
1,Pavel Filimonov,Павел Филимонов,M,1999-09-09,Teen,90,90.00,,,,,,,,,,,195,202.5,-210,202.5,,202.5,No,D,Raw
2,Egor Ablaev,Егор Аблаев,M,2002-10-17,Teen,90,87.50,,,,,,,,,,,180,200,-222.5,200.0,,200.0,No,D,Raw
1,Evgeniy Tagirov,Евгений Тагиров,M,1994-10-20,Open,90,87.30,,,,,,,,,,,230,235,240,240.0,,240.0,No,D,Raw
2,Sergey Abrosimov,Сергей Абросимов,M,1985-06-04,Open,90,84.70,,,,,,,,,,,210,225,-232.5,225.0,,225.0,No,D,Raw
3,Timofey Kulishov,Тимофей Кулишов,M,1985-07-29,Open,90,89.20,,,,,,,,,,,220,-240,-240,220.0,,220.0,No,D,Raw
4,Aleksey Smagin,Алексей Смагин,M,1984-04-26,Open,90,89.80,,,,,,,,,,,202.5,220,-230,220.0,,220.0,No,D,Raw
5,Maksim Sokolenko,Максим Соколенко,M,1989-08-19,Open,90,87.20,,,,,,,,,,,180,202.5,215,215.0,,215.0,No,D,Raw
1,Vyacheslav Varlamov,Вячеслав Варламов,M,1975-04-30,Masters 40-44,90,89.40,,,,,,,,,,,230,240,-250,240.0,,240.0,No,D,Raw
1,Aleksandr Anisimov,Александр Анисимов,M,1999-03-20,Juniors 20-23,100,98.70,,,,,,,,,,,220,240,-245,240.0,,240.0,No,D,Raw
1,Dmitriy Chernyshev,Дмитрий Чернышев,M,1974-01-22,Open,100,90.80,,,,,,,,,,,285,-300,-300,285.0,,285.0,No,D,Raw
2,Vladimir Safonov,Владимир Сафонов,M,1987-03-21,Open,100,98.70,,,,,,,,,,,225,240,-250,240.0,,240.0,No,D,Raw
3,Andrey Opolchentsev,Андрей Ополченцев,M,1993-09-16,Open,100,96.90,,,,,,,,,,,-200,200,210,210.0,,210.0,No,D,Raw
4,Vasiliy Belov,Василий Белов,M,1987-05-05,Open,100,98.50,,,,,,,,,,,195,200,-205,200.0,,200.0,No,D,Raw
5,Sergey Aleshchenko,Сергей Алещенко,M,1989-08-13,Open,100,97.80,,,,,,,,,,,160,170,-180,170.0,,170.0,No,D,Raw
1,Aleksandr Suvorov,Александр Суворов,M,1995-04-16,Open,110,107.20,,,,,,,,,,,-245,250,-260,250.0,,250.0,No,D,Raw
1,Irina Kuchmareva,Ирина Кучмарева,F,2002-05-11,Teen,56,54.10,,,,,,,,,,,100,110,-125,110.0,,110.0,No,D,Raw
1,Antonina Sboynova,Антонина Сбойнова,F,1974-08-01,Masters 40-44,67.5,66.10,,,,,,,,,,,120,130,140,140.0,,140.0,No,D,Raw
1,Marina Savenko,Марина Савенко,F,1992-02-07,Open,75,70.90,,,,,,,,,,,85,90,-95,90.0,,90.0,No,D,Raw
1,Konstantin Smirnov,Константин Смирнов,M,1987-06-18,Open,75,74.90,,,,,,,,,,,220,-230,-230,220.0,,220.0,No,D,Raw
1,Matvey Lukashuk,Матвей Лукашук,M,1998-03-06,Juniors 20-23,82.5,76.20,,,,,,,,,,,-175,175,185,185.0,,185.0,No,D,Raw
1,Ruslan Tavtilov,Руслан Тавтилов,M,1980-02-26,Open,82.5,82.50,,,,,,,,,,,250,260,-270,260.0,,260.0,No,D,Raw
DQ,Yuliy Grakhov,Юлий Грахов,M,1963-08-17,Masters 55-59,82.5,82.50,,,,,,,,,,,-160,-160,,,,,No,D,Raw
1,Pavel Kobelev,Павел Кобелев,M,1989-08-04,Open,90,87.20,,,,,,,,,,,280,300,320,320.0,-340,320.0,No,D,Raw
1,Anton Rusalenko,Антон Русаленко,M,1987-10-22,Open,100,99.40,,,,,,,,,,,265,285,-290,285.0,,285.0,No,D,Raw
2,Igor Malakhov,Игорь Малахов,M,1982-07-11,Open,100,98.40,,,,,,,,,,,230,240,-250,240.0,,240.0,No,D,Raw
1,Artem Krot,Артем Крот,M,1995-10-03,Open,110,108.60,,,,,,,,,,,-330,345,365,365.0,,365.0,No,D,Raw
2,Valeriy Yakovlev,Валерий Яковлев,M,1980-12-26,Open,110,108.90,,,,,,,,,,,275,282.5,285,285.0,,285.0,No,D,Raw
3,Aleksey Odintsov,Алексей Одинцов,M,1993-10-10,Open,110,105.00,,,,,,,,,,,240,252.5,260,260.0,,260.0,No,D,Raw
1,Bogdan Matiko,Богдан Матико,M,1992-06-03,Open,125,119.50,,,,,,,,,,,315,335,-350,335.0,,335.0,No,D,Raw
1,Aleksey Kostylev,Алексей Костылев,M,1973-09-04,Masters 45-49,125,117.50,,,,,,,,,,,270,290,-300,290.0,,290.0,No,D,Raw
1,Denis Ryabchikov,Денис Рябчиков,M,1976-07-29,Army Open,67.5,67.30,,,,,,70,-72.5,-72.5,70.0,,,,,,,70.0,No,B,Raw
1,Denis Ryabchikov,Денис Рябчиков,M,1976-07-29,Army Masters 40-44,67.5,67.30,,,,,,70,-72.5,-72.5,70.0,,,,,,,70.0,No,B,Raw
1,Igor Ivanov #1,Игорь Иванов,M,1968-08-05,Army Masters 50-54,90,90.00,,,,,,70,75,80,80.0,82.5,,,,,,80.0,No,B,Raw
1,Viktor Shlenchak,Виктор Шленчак,M,1984-04-22,Army Open,100,93.10,,,,,,80,90,100,100.0,,,,,,,100.0,No,B,Raw
1,Denis Ryabchikov,Денис Рябчиков,M,1976-07-29,Army Open,67.5,67.30,,,,,,70,-72.5,-72.5,70.0,,,,,,,70.0,No,B,Raw
1,Denis Ryabchikov,Денис Рябчиков,M,1976-07-29,Army Masters 40-44,67.5,67.30,,,,,,70,-72.5,-72.5,70.0,,,,,,,70.0,No,B,Raw
