Place,Name,CyrillicName,BirthYear,WeightClassKg,BodyweightKg,Best3SquatKg,Best3BenchKg,Best3DeadliftKg,TotalKg,Event,Equipment,Sex,Division
1,Sofya Kulikova,Софья Куликова,2004,43,42.65,70,35,70,175,SBD,Single-ply,F,Sub-Juniors
DQ,Natalya Trekhalina,Наталья Трехалина,2002,43,43,,,,,SBD,Single-ply,F,Sub-Juniors
1,Anastasiya Timoshenko,Анастасия Тимошенко,2000,47,46.6,62.5,32.5,70,165,SBD,Single-ply,F,Sub-Juniors
DQ,Darya Chizhova,Дарья Чижова,2001,47,45.65,,,,,SBD,Single-ply,F,Sub-Juniors
1,Anastasiya Martyusheva,Анастасия Мартюшева,1996,52,50.8,90,35,95,220,SBD,Single-ply,F,Sub-Juniors
2,Olga Galskaya,Ольга Гальская,2001,52,52,87.5,42.5,85,215,SBD,Single-ply,F,Sub-Juniors
3,Viktoriya Rubtsova,Виктория Рубцова,2000,52,48.9,77.5,37.5,90,205,SBD,Single-ply,F,Sub-Juniors
4,Tatyana Saktarova,Татьяна Сактарова,2000,52,49.05,80,32.5,90,202.5,SBD,Single-ply,F,Sub-Juniors
5,Alena Miniakhmetova,Алена Миниахметова,1996,52,50.2,85,35,75,195,SBD,Single-ply,F,Sub-Juniors
DQ,Elena Radostsva,Елена Радостсва,1997,52,51.9,100,50,,,SBD,Single-ply,F,Sub-Juniors
1,Aleksandra Bazhukova,Александра Бажукова,1996,57,56.75,125,60,120,305,SBD,Single-ply,F,Sub-Juniors
2,Tatyana Nevolina,Татьяна Неволина,1997,57,56.7,95,40,95,230,SBD,Single-ply,F,Sub-Juniors
DQ,Rimma Semenenko,Римма Семененко,1996,57,56.55,115,,,,SBD,Single-ply,F,Sub-Juniors
1,Ekaterina Rakova,Екатерина Ракова,1996,63,61.75,125,60,120,305,SBD,Single-ply,F,Sub-Juniors
2,Aleksandra Sosova,Александра Сосова,1998,63,62.9,90,42.5,85,217.5,SBD,Single-ply,F,Sub-Juniors
DQ,Aleksandra Lozhkina,Александра Ложкина,1997,72,69.7,,,,,SBD,Single-ply,F,Sub-Juniors
1,Dmitriy Belkov,Дмитрий Бельков,1998,43,42.5,100,52.5,107.5,260,SBD,Single-ply,M,Sub-Juniors
2,Viktor Pazhssov,Виктор Пажссов,2001,43,38.75,80,50,80,210,SBD,Single-ply,M,Sub-Juniors
DQ,Evgeniy Ryaiosov,Евгений Ряиосов,1996,43,42.6,80,45,,,SBD,Single-ply,M,Sub-Juniors
1,Evgeniy Chizhovkin,Евгений Чижовкин,1999,53,52.9,130,70,110,310,SBD,Single-ply,M,Sub-Juniors
2,Sergey Popov,Сергей Попов,2000,53,46.25,90,60,105,255,SBD,Single-ply,M,Sub-Juniors
1,Sergey Malkov #3,Сергей Малков,1997,59,59,170,107.5,185,462.5,SBD,Single-ply,M,Sub-Juniors
2,Nikita Zubov,Никита Зубов,1998,59,58.1,115,75,125,315,SBD,Single-ply,M,Sub-Juniors
DQ,Maksim Fomin,Максим Фомин,1996,59,59,155,,,,SBD,Single-ply,M,Sub-Juniors
1,Aleksandr Pyankov,Александр Пьянков,1996,66,65.9,195,115,205,515,SBD,Single-ply,M,Sub-Juniors
2,Daniil Kumanchov,Даниил Куманчов,1998,66,65.8,130,85,150,365,SBD,Single-ply,M,Sub-Juniors
1,Artem Ryabov,Артем Рябов,1996,74,72.8,200,120,217.5,537.5,SBD,Single-ply,M,Sub-Juniors
2,Yan Loginov,Ян Логинов,1997,74,72.5,200,125,185,510,SBD,Single-ply,M,Sub-Juniors
3,Vladimir Kazantsev,Владимир Казанцев,1996,74,72.8,185,125,195,505,SBD,Single-ply,M,Sub-Juniors
4,Dmitriy Ermakov,Дмитрий Ермаков,1996,74,72.75,165,100,175,440,SBD,Single-ply,M,Sub-Juniors
5,Arseniy Prokhorov,Арсений Прохоров,1997,74,71.9,160,105,175,440,SBD,Single-ply,M,Sub-Juniors
DQ,Artem Lozovoy,Артем Лозовой,1997,74,73.15,200,,,,SBD,Single-ply,M,Sub-Juniors
1,Nikita Penyagin,Никита Пенягин,1997,83,76.6,145,105,165,415,SBD,Single-ply,M,Sub-Juniors
2,Denis Bazhuko,Денис Бажукоь,1996,83,81.4,140,85,165,390,SBD,Single-ply,M,Sub-Juniors
3,Aleksandr Chupin,Александр Чупин,1997,83,74.75,120,105,150,375,SBD,Single-ply,M,Sub-Juniors
DQ,Kirill Reshetnikov,Кирилл Решетников,1997,93,92.65,167.5,,,,SBD,Single-ply,M,Sub-Juniors
DQ,Vladislav Makarov,Владислав Макаров,1997,93,90.8,,,,,SBD,Single-ply,M,Sub-Juniors
1,Anna Zhulevya,Анна Жулевя,1995,47,46.85,80,30,90,200,SBD,Single-ply,F,Juniors
DQ,Anna Karakulova,Анна Каракулова,1995,47,45.2,,,,,SBD,Single-ply,F,Juniors
1,Natalya Repzhina,Наталья Репьжина,1993,52,49.3,120,50,115,285,SBD,Single-ply,F,Juniors
1,Irina Mosyagiia,Ирина Мосягииа,1995,57,55.95,110,45,100,255,SBD,Single-ply,F,Juniors
1,Valeriya Khokhlova,Валерия Хохлова,1991,63,62.95,140,92.5,137.5,370,SBD,Single-ply,F,Juniors
2,Darya Kolesnikova,Дарья Колесникова,1994,63,59.7,70,35,100,205,SBD,Single-ply,F,Juniors
1,Olga Seredina,Ольга Середина,1991,72,67.7,90,57.5,105,252.5,SBD,Single-ply,F,Juniors
1,Aleksey Speshilov,Алексей Спешилов,1994,59,58,170,105,182.5,457.5,SBD,Single-ply,M,Juniors
2,Konstantin Speshilov,Константин Спешилов,1994,59,57.35,167.5,105,167.5,440,SBD,Single-ply,M,Juniors
3,Sergey Kolpakov,Сергей Колпаков,1995,59,58.55,135,90,145,370,SBD,Single-ply,M,Juniors
DQ,Ilya Luzin,Илья Лузин,1994,59,59,145,100,,,SBD,Single-ply,M,Juniors
DQ,Igor Devyatkov,Игорь Девятков,1993,59,58.8,,,,,SBD,Single-ply,M,Juniors
1,Vladislav Berezin,Владислав Березин,1995,66,65.3,220,120,210,550,SBD,Single-ply,M,Juniors
2,Ilya Troshev,Илья Трошев,1991,66,66,190,120,210,520,SBD,Single-ply,M,Juniors
3,Dmitriy Gorikh,Дмитрий Горих,1995,66,65.1,150,120,145,415,SBD,Single-ply,M,Juniors
1,Ruslan Valiev,Руслан Валиев,1991,74,67.65,220,140,215,575,SBD,Single-ply,M,Juniors
2,Denis Trubnikov,Денис Трубников,1994,74,72.85,180,120,200,500,SBD,Single-ply,M,Juniors
3,Aleksey Selyunin,Алексей Селюнин,1995,74,72.25,190,120,185,495,SBD,Single-ply,M,Juniors
4,Ranis Islamatdinov,Ранис Исламатдинов,1991,74,68.9,175,115,185,475,SBD,Single-ply,M,Juniors
DQ,Konstantin Stupakov,Константин Ступаков,1994,74,72.35,185,,,,SBD,Single-ply,M,Juniors
1,Vladislav Kladov,Владислав Кладов,1994,83,82.1,250,130,255,635,SBD,Single-ply,M,Juniors
2,Nikolay Maltsev,Николай Мальцев,1993,83,82.5,247.5,137.5,235,620,SBD,Single-ply,M,Juniors
3,Oleg Russkikh,Олег Русских,1995,83,83,210,152.5,225,587.5,SBD,Single-ply,M,Juniors
4,Mikhail Rekhtin,Михаил Рехтин,1994,83,81.1,210,147.5,225,582.5,SBD,Single-ply,M,Juniors
5,Andrey Romanov,Андрей Романов,1993,83,79.5,200,135,210,545,SBD,Single-ply,M,Juniors
6,Roman Kovalev,Роман Ковалев,1994,83,83,200,100,187.5,487.5,SBD,Single-ply,M,Juniors
DQ,Denis Kraskin,Денис Краскин,1991,83,78.8,180,,,,SBD,Single-ply,M,Juniors
DQ,Nikolay Ponomarev,Николай Пономарев,1994,83,82.95,175,,,,SBD,Single-ply,M,Juniors
DQ,Aleksey Nagovitsin,Алексей Наговицин,1991,83,,,,,,SBD,Single-ply,M,Juniors
1,Kirill Batishchev,Кирилл Батищев,1993,93,87.45,170,150,200,520,SBD,Single-ply,M,Juniors
2,Dmitriy Kozlov #6,Дмитрий Козлов,1993,93,89,190,115,195,500,SBD,Single-ply,M,Juniors
3,Yaroslav Rogozhnikov,Ярослав Рогожников,1995,93,93,160,95,190,445,SBD,Single-ply,M,Juniors
1,Artem Trutnev,Артем Трутнев,1995,105,97,235,160,242.5,637.5,SBD,Single-ply,M,Juniors
