Name,WeightClassKg,Division,Best3SquatKg,Best3BenchKg,Best3DeadliftKg,TotalKg,Sex,Event,Equipment,Place,Team
Mike Brown #12,90,M-O,,140.16,,140.16,M,B,Single-ply,1,
Mike Brown #12,90,M-M1,,140.16,,140.16,M,B,Single-ply,1,
Jackie Calloway,100,M-O,,182.34,,182.34,M,B,Single-ply,1,
Jackie Calloway,100,M-M1,,182.34,,182.34,M,B,Single-ply,1,
George Walker,100,M-M4,,167.38,,167.38,M,B,Single-ply,1,
Ken Zuvich,100,M-O,,140.16,,140.16,M,B,Single-ply,2,
Jeff Walker,110,M-O,,182.34,,182.34,M,B,Single-ply,1,
Chuck Steele,110,M-M3,,175.09,,175.09,M,B,Single-ply,1,
