Name,WeightClassKg,Division,Best3SquatKg,Best3BenchKg,Best3DeadliftKg,TotalKg,Sex,Event,Equipment,Place,State
Darren Matsumoto,67.5,M-M1,165.11,165.11,165.11,495.32,M,SBD,Single-ply,1,
Nolan Crabbe,110,M-M2,165.11,165.11,165.11,495.32,M,SBD,Single-ply,1,
